Key,Desc,English,Arabic,Chinese,Danish,Dutch,Estonian,Finnish,French,German,Greek,Hebrew,Italian,Japanese,Korean,Latvian,Lithuanian,Norwegian,Polish,Portuguese,Romanian,Russian,Slovak,Slovenian,Spanish,Swedish,Thai,Turkish,Vietnamese,Catalan,SerboCroatian,Czech,Ukrainian,Indonesian,Malaysia,Hungarian,Hindi
LoadingID,,LOADING,جار التحميل,加载,INDLÆSER,BEZIG MET LADEN,LAADIMINE,LADATAAN,CHARGEMENT EN COURS,WIRD GELADEN,ΦΟΡΤΩΣΗ,טוען,CARICAMENTO IN CORSO,読み込み,로딩,IEKRAUŠANA,PAKRAUTI,LASTING,ŁADOWANIE,CARREGANDO,SE ÎNCARCĂ,ЗАГРУЗКА,NAČÍTAVA,NALAGANJE,CARGANDO,LÄSER IN,การโหลด,YÜKLENİYOR,ĐANG TẢI,CÀRREGA,UČITAVAM,NAČÍTÁNÍ,ЗАВАНТАЖЕННЯ,MEMUAT,MEMUATKAN,BETÖLTÉS,लोड हो रहा है
Text0ID,,"CHOOSE THE CHARACTERS YOU  WANT TO TURN INTO
","اختر الأحرف التي تريد أن تتحول إليها
","选择要变成的字符
","VÆLG DE TEGN, DU VIL BLIVE TIL
","KIES DE TEKENS DIE U WILT VERANDEREN
","VALIGE TÄHEMÄRGID, MILLEKS SOOVITE MUUTUDA
","VALITSE HAHMOT, JOISTA HALUAT MUUTTAA
","CHOISISSEZ LES PERSONNAGES QUE VOUS SOUHAITEZ TRANSFORMER
","WÄHLEN SIE DIE CHARAKTERE, IN DIE SIE SICH BEFASSEN MÖCHTEN
","ΕΠΙΛΈΞΤΕ ΤΟΥΣ ΧΑΡΑΚΤΉΡΕΣ ΠΟΥ ΘΈΛΕΤΕ ΝΑ ΜΕΤΑΤΡΑΠΕΊ ΣΕ
","בחר את הדמויות שאתה רוצה להפוך אליהן
","SCEGLI I PERSONAGGI IN CUI VUOI TRASFORMARE
","頼りたい文字を選択してください
","바꾸고 싶은 캐릭터를 선택하십시오
","IZVĒLIETIES RAKSTZĪMES, KURĀS VĒLATIES PĀRVĒRSTIES
","PASIRINKITE SIMBOLIUS, Į KURIUOS NORITE VIRSTI
","VELG KARAKTERENE DU VIL BLI TIL
","WYBIERZ POSTACIE, W KTÓRE CHCESZ SIĘ SKRĘCIĆ
","ESCOLHA OS PERSONAGENS QUE VOCÊ DESEJA SE TRANSFORMAR
","ALEGEȚI PERSONAJELE ÎN CARE DORIȚI SĂ VĂ TRANSFORMAȚI
","ВЫБИРАЙТЕ ПЕРСОНАЖЕЙ, В КОТОРЫХ ВЫ ХОТИТЕ ПРЕВРАТИТЬСЯ","VYBERTE ZNAKY, NA KTORÉ SA CHCETE ZMENIŤ
","IZBERITE ZNAKE, V KATERE ŽELITE SPREMENITI
","ELIJA LOS PERSONAJES EN LOS QUE DESEA CONVERTIR
","VÄLJ DE TECKEN DU VILL FÖRVANDLAS TILL
","เลือกอักขระที่คุณต้องการเปิด
","DÖNÜŞTÜRMEK ISTEDIĞINIZ KARAKTERLERI SEÇIN
","CHỌN CÁC NHÂN VẬT BẠN MUỐN BIẾN THÀNH
","TRIEU ELS CARÀCTERS EN QUÈ VULGUEU CONVERTIR -VOS
","ODABERITE LIKOVE U KOJE SE ŽELITE PRETVORITI U
","VYBERTE POSTAVY, NA KTERÉ SE CHCETE PROMĚNIT
","ОБИРАЙТЕ ПЕРСОНАЖІВ, НА ЯКИХ ХОЧЕТЕ ПЕРЕТВОРИТИСЯ","PILIH KARAKTER YANG INGIN ANDA UBAH
","PILIH WATAK YANG ANDA MAHU BERTUKAR MENJADI
","VÁLASSZA KI AZOKAT A KARAKTEREKET, AMELYEKBE BE SZERETNE VÁLTANI
","उन पात्रों को चुनें जिन्हें आप बदलना चाहते हैं
"
Text1ID,,Wildmutt,Wildmutt,Wildmutt,Wildmutt,Wildmutt,Wildmutt,Wildmutt,Wildmutt,Wildmutt,Wildmutt,Wildmutt,Wildmutt,Wildmutt,Wildmutt,Wildmutt,Wildmutt,Wildmutt,Wildmutt,Wildmutt,Wildmutt,Wildmutt,Wildmutt,Wildmutt,Wildmutt,Wildmutt,Wildmutt,Wildmutt,Wildmutt,Wildmutt,Wildmutt,Wildmutt,Wildmutt,Wildmutt,Wildmutt,Wildmutt,Wildmutt
Text2ID,,Four Arms,Four Arms,Four Arms,Four Arms,Four Arms,Four Arms,Four Arms,Four Arms,Four Arms,Four Arms,Four Arms,Four Arms,Four Arms,Four Arms,Four Arms,Four Arms,Four Arms,Four Arms,Four Arms,Four Arms,Four Arms,Four Arms,Four Arms,Four Arms,Four Arms,Four Arms,Four Arms,Four Arms,Four Arms,Four Arms,Four Arms,Four Arms,Four Arms,Four Arms,Four Arms,Four Arms
Text3ID,,Greymatter,Greymatter,Greymatter,Greymatter,Greymatter,Greymatter,Greymatter,Greymatter,Greymatter,Greymatter,Greymatter,Greymatter,Greymatter,Greymatter,Greymatter,Greymatter,Greymatter,Greymatter,Greymatter,Greymatter,Greymatter,Greymatter,Greymatter,Greymatter,Greymatter,Greymatter,Greymatter,Greymatter,Greymatter,Greymatter,Greymatter,Greymatter,Greymatter,Greymatter,Greymatter,Greymatter
Text4ID,,Accelerate,Accelerate,Accelerate,Accelerate,Accelerate,Accelerate,Accelerate,Accelerate,Accelerate,Accelerate,Accelerate,Accelerate,Accelerate,Accelerate,Accelerate,Accelerate,Accelerate,Accelerate,Accelerate,Accelerate,Accelerate,Accelerate,Accelerate,Accelerate,Accelerate,Accelerate,Accelerate,Accelerate,Accelerate,Accelerate,Accelerate,Accelerate,Accelerate,Accelerate,Accelerate,Accelerate
Text5ID,,Upgrade,Upgrade,Upgrade,Upgrade,Upgrade,Upgrade,Upgrade,Upgrade,Upgrade,Upgrade,Upgrade,Upgrade,Upgrade,Upgrade,Upgrade,Upgrade,Upgrade,Upgrade,Upgrade,Upgrade,Upgrade,Upgrade,Upgrade,Upgrade,Upgrade,Upgrade,Upgrade,Upgrade,Upgrade,Upgrade,Upgrade,Upgrade,Upgrade,Upgrade,Upgrade,Upgrade
Text6ID,,Diamond Head,Diamond Head,Diamond Head,Diamond Head,Diamond Head,Diamond Head,Diamond Head,Diamond Head,Diamond Head,Diamond Head,Diamond Head,Diamond Head,Diamond Head,Diamond Head,Diamond Head,Diamond Head,Diamond Head,Diamond Head,Diamond Head,Diamond Head,Diamond Head,Diamond Head,Diamond Head,Diamond Head,Diamond Head,Diamond Head,Diamond Head,Diamond Head,Diamond Head,Diamond Head,Diamond Head,Diamond Head,Diamond Head,Diamond Head,Diamond Head,Diamond Head
Text7ID,,Rip Jaws,Rip Jaws,Rip Jaws,Rip Jaws,Rip Jaws,Rip Jaws,Rip Jaws,Rip Jaws,Rip Jaws,Rip Jaws,Rip Jaws,Rip Jaws,Rip Jaws,Rip Jaws,Rip Jaws,Rip Jaws,Rip Jaws,Rip Jaws,Rip Jaws,Rip Jaws,Rip Jaws,Rip Jaws,Rip Jaws,Rip Jaws,Rip Jaws,Rip Jaws,Rip Jaws,Rip Jaws,Rip Jaws,Rip Jaws,Rip Jaws,Rip Jaws,Rip Jaws,Rip Jaws,Rip Jaws,Rip Jaws
Text8ID,,Stink Fly,Stink Fly,Stink Fly,Stink Fly,Stink Fly,Stink Fly,Stink Fly,Stink Fly,Stink Fly,Stink Fly,Stink Fly,Stink Fly,Stink Fly,Stink Fly,Stink Fly,Stink Fly,Stink Fly,Stink Fly,Stink Fly,Stink Fly,Stink Fly,Stink Fly,Stink Fly,Stink Fly,Stink Fly,Stink Fly,Stink Fly,Stink Fly,Stink Fly,Stink Fly,Stink Fly,Stink Fly,Stink Fly,Stink Fly,Stink Fly,Stink Fly
Text9ID,,Ghost Freak,Ghost Freak,Ghost Freak,Ghost Freak,Ghost Freak,Ghost Freak,Ghost Freak,Ghost Freak,Ghost Freak,Ghost Freak,Ghost Freak,Ghost Freak,Ghost Freak,Ghost Freak,Ghost Freak,Ghost Freak,Ghost Freak,Ghost Freak,Ghost Freak,Ghost Freak,Ghost Freak,Ghost Freak,Ghost Freak,Ghost Freak,Ghost Freak,Ghost Freak,Ghost Freak,Ghost Freak,Ghost Freak,Ghost Freak,Ghost Freak,Ghost Freak,Ghost Freak,Ghost Freak,Ghost Freak,Ghost Freak
Text10ID,,Cannon Bolt,Cannon Bolt,Cannon Bolt,Cannon Bolt,Cannon Bolt,Cannon Bolt,Cannon Bolt,Cannon Bolt,Cannon Bolt,Cannon Bolt,Cannon Bolt,Cannon Bolt,Cannon Bolt,Cannon Bolt,Cannon Bolt,Cannon Bolt,Cannon Bolt,Cannon Bolt,Cannon Bolt,Cannon Bolt,Cannon Bolt,Cannon Bolt,Cannon Bolt,Cannon Bolt,Cannon Bolt,Cannon Bolt,Cannon Bolt,Cannon Bolt,Cannon Bolt,Cannon Bolt,Cannon Bolt,Cannon Bolt,Cannon Bolt,Cannon Bolt,Cannon Bolt,Cannon Bolt
Text11ID,,Heat Blast,Heat Blast,Heat Blast,Heat Blast,Heat Blast,Heat Blast,Heat Blast,Heat Blast,Heat Blast,Heat Blast,Heat Blast,Heat Blast,Heat Blast,Heat Blast,Heat Blast,Heat Blast,Heat Blast,Heat Blast,Heat Blast,Heat Blast,Heat Blast,Heat Blast,Heat Blast,Heat Blast,Heat Blast,Heat Blast,Heat Blast,Heat Blast,Heat Blast,Heat Blast,Heat Blast,Heat Blast,Heat Blast,Heat Blast,Heat Blast,Heat Blast
Text12ID,,Ditto,Ditto,Ditto,Ditto,Ditto,Ditto,Ditto,Ditto,Ditto,Ditto,Ditto,Ditto,Ditto,Ditto,Ditto,Ditto,Ditto,Ditto,Ditto,Ditto,Ditto,Ditto,Ditto,Ditto,Ditto,Ditto,Ditto,Ditto,Ditto,Ditto,Ditto,Ditto,Ditto,Ditto,Ditto,Ditto
Text13ID,, Eye Guy, Eye Guy, Eye Guy, Eye Guy, Eye Guy, Eye Guy, Eye Guy, Eye Guy, Eye Guy, Eye Guy, Eye Guy, Eye Guy, Eye Guy, Eye Guy, Eye Guy, Eye Guy, Eye Guy, Eye Guy, Eye Guy, Eye Guy, Eye Guy, Eye Guy, Eye Guy, Eye Guy, Eye Guy, Eye Guy, Eye Guy, Eye Guy, Eye Guy, Eye Guy, Eye Guy, Eye Guy, Eye Guy, Eye Guy, Eye Guy, Eye Guy
Text14ID,, Wildvine, Wildvine, Wildvine, Wildvine, Wildvine, Wildvine, Wildvine, Wildvine, Wildvine, Wildvine, Wildvine, Wildvine, Wildvine, Wildvine, Wildvine, Wildvine, Wildvine, Wildvine, Wildvine, Wildvine, Wildvine, Wildvine, Wildvine, Wildvine, Wildvine, Wildvine, Wildvine, Wildvine, Wildvine, Wildvine, Wildvine, Wildvine, Wildvine, Wildvine, Wildvine, Wildvine
Text15ID,, Benmummy, Benmummy, Benmummy, Wildvine, Benmummy, Benmummy, Benmummy, Benmummy, Benmummy, Benmummy, Benmummy, Benmummy, Benmummy, Benmummy, Benmummy, Benmummy, Benmummy, Benmummy, Benmummy, Benmummy, Benmummy, Benmummy, Benmummy, Benmummy, Benmummy, Benmummy, Benmummy, Benmummy, Benmummy, Benmummy, Benmummy, Benmummy, Benmummy, Benmummy, Benmummy, Benmummy
Text16ID,,Benwolf,Benwolf,Benwolf,Benwolf,Benwolf,Benwolf,Benwolf,Benwolf,Benwolf,Benwolf,Benwolf,Benwolf,Benwolf,Benwolf,Benwolf,Benwolf,Benwolf,Benwolf,Benwolf,Benwolf,Benwolf,Benwolf,Benwolf,Benwolf,Benwolf,Benwolf,Benwolf,Benwolf,Benwolf,Benwolf,Benwolf,Benwolf,Benwolf,Benwolf,Benwolf,Benwolf
Text17ID,,"CHOOSE YOUR FAVORITE MODS TO DIVERSIFY YOUR GAME
","اختر التعديلات المفضلة لديك لتنويع لعبتك
","选择您喜欢的mod来使您的游戏多样化
","VÆLG DINE YNDLINGSMODS FOR AT DIVERSIFICERE DIT SPIL
","KIES JE FAVORIETE MODS OM JE SPEL TE DIVERSIFIËREN
","MÄNGU MITMEKESISTAMISEKS VALIGE OMA LEMMIKMOODID
","VALITSE SUOSIKKIMODIT MONIPUOLISTAMAAN PELI
","CHOISISSEZ VOS MODS PRÉFÉRÉS POUR DIVERSIFIER VOTRE JEU
","WÄHLEN SIE IHRE LIEBLINGSMODS, UM IHR SPIEL ZU DIVERSIFIZIEREN
","ΕΠΙΛΈΞΤΕ ΤΑ ΑΓΑΠΗΜΈΝΑ ΣΑΣ MODS ΓΙΑ ΝΑ ΔΙΑΦΟΡΟΠΟΙΉΣΕΤΕ ΤΟ ΠΑΙΧΝΊΔΙ ΣΑΣ
","בחר את המצבים המועדפים עליך כדי לגוון את המשחק שלך
","SCEGLI LE TUE MOD PREFERITE PER DIVERSIFICARE IL TUO GIOCO
","お気に入りのMODを選択して、ゲームを多様化してください
","게임을 다양 화하려면 좋아하는 모드를 선택하십시오
","IZVĒLIETIES IECIENĪTOS MODIFIKĀCIJAS, LAI DAŽĀDOTU SAVU SPĒLI
","PASIRINKITE MĖGSTAMUS MODIFIKACIJAS, KAD PAĮVAIRINTUMĖTE SAVO ŽAIDIMĄ
","VELG FAVORITTMODUSENE DINE FOR Å DIVERSIFISERE SPILLET DITT
","WYBIERZ SWOJE ULUBIONE MODY, ABY DYWERSYFIKOWAĆ SWOJĄ GRĘ
","ESCOLHA SEUS MODS FAVORITOS PARA DIVERSIFICAR SEU JOGO
","ALEGEȚI -VĂ MODURILE PREFERATE PENTRU A VĂ DIVERSIFICA JOCUL
","ВЫБИРАЙТЕ ЛЮБИМЫЕ МОДЫ, ЧТОБЫ РАЗНООБРАЗИТЬ ИГРУ","VYBERTE SI SVOJE OBĽÚBENÉ REŽIMY, ABY STE DIVERZIFIKOVALI SVOJU HRU
","IZBERITE SVOJE NAJLJUBŠE MODE ZA DIVERZIFIKACIJO IGRE
","ELIJA SUS MODIFICACIONES FAVORITAS PARA DIVERSIFICAR SU JUEGO
","VÄLJ DINA FAVORITMODS FÖR ATT DIVERSIFIERA DITT SPEL
","เลือก MODS ที่คุณชื่นชอบเพื่อกระจายเกมของคุณ
","OYUNUNUZU ÇEŞITLENDIRMEK IÇIN EN SEVDIĞINIZ MODLARI SEÇIN
","CHỌN CÁC BẢN MOD YÊU THÍCH CỦA BẠN ĐỂ ĐA DẠNG HÓA TRÒ CHƠI CỦA BẠN
","TRIEU ELS VOSTRES MODS PREFERITS PER DIVERSIFICAR EL VOSTRE JOC
","ODABERITE SVOJE OMILJENE MODOVE KAKO BISTE DIVERZIFICIRALI SVOJU IGRU
","VYBERTE SI SVÉ OBLÍBENÉ MODY PRO DIVERZIFIKACI VAŠÍ HRY
","ОБИРАЙТЕ УЛЮБЛЕНІ МОДИ, ЩОБ РІЗНОМАНІТНИТИ СВОЮ ГРУ","PILIH MOD FAVORIT ANDA UNTUK MENDIVERSIFIKASI GAME ANDA
","PILIH MOD KEGEMARAN ANDA UNTUK MEMPELBAGAIKAN PERMAINAN ANDA
","VÁLASSZA KI A KEDVENC MODJAIT A JÁTÉK DIVERZIFIKÁLÁSÁHOZ
","अपने खेल में विविधता लाने के लिए अपने पसंदीदा मॉड चुनें
"
Text18ID,,Superheroes,Superheroes,Superheroes,Superheroes,Superheroes,Superheroes,Superheroes,Superheroes,Superheroes,Superheroes,Superheroes,Superheroes,Superheroes,Superheroes,Superheroes,Superheroes,Superheroes,Superheroes,Superheroes,Superheroes,Superheroes,Superheroes,Superheroes,Superheroes,Superheroes,Superheroes,Superheroes,Superheroes,Superheroes,Superheroes,Superheroes,Superheroes,Superheroes,Superheroes,Superheroes,Superheroes
Text19ID,,Survival,Survival,Survival,Survival,Survival,Survival,Survival,Survival,Survival,Survival,Survival,Survival,Survival,Survival,Survival,Survival,Survival,Survival,Survival,Survival,Survival,Survival,Survival,Survival,Survival,Survival,Survival,Survival,Survival,Survival,Survival,Survival,Survival,Survival,Survival,Survival
Text20ID,,Mutant Creatures,Mutant Creatures,Mutant Creatures,Mutant Creatures,Mutant Creatures,Mutant Creatures,Mutant Creatures,Mutant Creatures,Mutant Creatures,Mutant Creatures,Mutant Creatures,Mutant Creatures,Mutant Creatures,Mutant Creatures,Mutant Creatures,Mutant Creatures,Mutant Creatures,Mutant Creatures,Mutant Creatures,Mutant Creatures,Mutant Creatures,Mutant Creatures,Mutant Creatures,Mutant Creatures,Mutant Creatures,Mutant Creatures,Mutant Creatures,Mutant Creatures,Mutant Creatures,Mutant Creatures,Mutant Creatures,Mutant Creatures,Mutant Creatures,Mutant Creatures,Mutant Creatures,Mutant Creatures
Text21ID,,Guns,Guns,Guns,Guns,Guns,Guns,Guns,Guns,Guns,Guns,Guns,Guns,Guns,Guns,Guns,Guns,Guns,Guns,Guns,Guns,Guns,Guns,Guns,Guns,Guns,Guns,Guns,Guns,Guns,Guns,Guns,Guns,Guns,Guns,Guns,Guns
Text22ID,,Armors,Armors,Armors,Armors,Armors,Armors,Armors,Armors,Armors,Armors,Armors,Armors,Armors,Armors,Armors,Armors,Armors,Armors,Armors,Armors,Armors,Armors,Armors,Armors,Armors,Armors,Armors,Armors,Armors,Armors,Armors,Armors,Armors,Armors,Armors,Armors
Text23ID,,Houses,Houses,Houses,Houses,Houses,Houses,Houses,Houses,Houses,Houses,Houses,Houses,Houses,Houses,Houses,Houses,Houses,Houses,Houses,Houses,Houses,Houses,Houses,Houses,Houses,Houses,Houses,Houses,Houses,Houses,Houses,Houses,Houses,Houses,Houses,Houses
Text24ID,,Lucky Block,Lucky Block,Lucky Block,Lucky Block,Lucky Block,Lucky Block,Lucky Block,Lucky Block,Lucky Block,Lucky Block,Lucky Block,Lucky Block,Lucky Block,Lucky Block,Lucky Block,Lucky Block,Lucky Block,Lucky Block,Lucky Block,Lucky Block,Lucky Block,Lucky Block,Lucky Block,Lucky Block,Lucky Block,Lucky Block,Lucky Block,Lucky Block,Lucky Block,Lucky Block,Lucky Block,Lucky Block,Lucky Block,Lucky Block,Lucky Block,Lucky Block
Text25ID,,PVP,PVP,PVP,PVP,PVP,PVP,PVP,PVP,PVP,PVP,PVP,PVP,PVP,PVP,PVP,PVP,PVP,PVP,PVP,PVP,PVP,PVP,PVP,PVP,PVP,PVP,PVP,PVP,PVP,PVP,PVP,PVP,PVP,PVP,PVP,PVP
Text26ID,,City,City,City,City,City,City,City,City,City,City,City,City,City,City,City,City,City,City,City,City,City,City,City,City,City,City,City,City,City,City,City,City,City,City,City,City
Text27ID,,RTX,RTX,RTX,RTX,RTX,RTX,RTX,RTX,RTX,RTX,RTX,RTX,RTX,RTX,RTX,RTX,RTX,RTX,RTX,RTX,RTX,RTX,RTX,RTX,RTX,RTX,RTX,RTX,RTX,RTX,RTX,RTX,RTX,RTX,RTX,RTX
Text28ID,,Horror,Horror,Horror,Horror,Horror,Horror,Horror,Horror,Horror,Horror,Horror,Horror,Horror,Horror,Horror,Horror,Horror,Horror,Horror,Horror,Horror,Horror,Horror,Horror,Horror,Horror,Horror,Horror,Horror,Horror,Horror,Horror,Horror,Horror,Horror,Horror
Text29ID,,Survive 100 Days,Survive 100 Days,Survive 100 Days,Survive 100 Days,Survive 100 Days,Survive 100 Days,Survive 100 Days,Survive 100 Days,Survive 100 Days,Survive 100 Days,Survive 100 Days,Survive 100 Days,Survive 100 Days,Survive 100 Days,Survive 100 Days,Survive 100 Days,Survive 100 Days,Survive 100 Days,Survive 100 Days,Survive 100 Days,Survive 100 Days,Survive 100 Days,Survive 100 Days,Survive 100 Days,Survive 100 Days,Survive 100 Days,Survive 100 Days,Survive 100 Days,Survive 100 Days,Survive 100 Days,Survive 100 Days,Survive 100 Days,Survive 100 Days,Survive 100 Days,Survive 100 Days,Survive 100 Days
Text30ID,,TNT,TNT,TNT,TNT,TNT,TNT,TNT,TNT,TNT,TNT,TNT,TNT,TNT,TNT,TNT,TNT,TNT,TNT,TNT,TNT,TNT,TNT,TNT,TNT,TNT,TNT,TNT,TNT,TNT,TNT,TNT,TNT,TNT,TNT,TNT,TNT
Text31ID,,One Block,One Block,One Block,One Block,One Block,One Block,One Block,One Block,One Block,One Block,One Block,One Block,One Block,One Block,One Block,One Block,One Block,One Block,One Block,One Block,One Block,One Block,One Block,One Block,One Block,One Block,One Block,One Block,One Block,One Block,One Block,One Block,One Block,One Block,One Block,One Block
Text32ID,,TURN INTO THE MOST UNUSUAL CHARACTERS!,تتحول إلى الشخصيات الأكثر غرابة!,变成最不寻常的角色！,BLIV TIL DE MEST USÆDVANLIGE KARAKTERER!,VERANDER IN DE MEEST ONGEWONE KARAKTERS!,MUUTKE KÕIGE EBAHARILIKUMATEKS TEGELASTEKS!,MUUTA EPÄTAVALLISIMMISTA HAHMOISTA!,TRANSFORMEZ LES PERSONNAGES LES PLUS INHABITUELS!,VERWANDELN SIE SICH IN DIE UNGEWÖHNLICHSTEN CHARAKTERE!,ΜΕΤΑΤΡΈΨΤΕ ΤΟΥΣ ΠΙΟ ΑΣΥΝΉΘΙΣΤΟΥΣ ΧΑΡΑΚΤΉΡΕΣ!,הפוך לדמויות הכי לא שגרתיות!,TRASFORMA I PERSONAGGI PIÙ INSOLITI!,最も珍しいキャラクターに変わります！,가장 특이한 캐릭터로 바꾸십시오!,PĀRVĒRTIETIES PAR NEPARASTĀKAJĀM RAKSTZĪMĒM!,PASUKITE Į NEĮPRASČIAUSIUS PERSONAŽUS!,BLI TIL DE MEST UVANLIGE KARAKTERENE!,ZMIEŃ SIĘ W NAJBARDZIEJ NIEZWYKŁE POSTACIE!,TRANSFORME OS PERSONAGENS MAIS INCOMUNS!,TRANSFORMĂ -TE ÎN CELE MAI NEOBIȘNUITE PERSONAJE!,ПРЕВРАЩАЙТЕСЬ В САМЫХ НЕОБЫЧНЫХ ПЕРСОНАЖЕЙ!,PREMEŇTE NA NAJNEOBVYKLEJŠIE POSTAVY!,SPREMENITE SE V NAJBOLJ NENAVADNE LIKE!,¡CONVIÉRTASE EN LOS PERSONAJES MÁS INUSUALES!,FÖRVANDLAS TILL DE MEST OVANLIGA KARAKTÄRERNA!,เปลี่ยนเป็นตัวละครที่ผิดปกติที่สุด!,EN SIRA DIŞI KARAKTERLERE DÖNÜŞÜN!,BIẾN VÀO CÁC NHÂN VẬT BẤT THƯỜNG NHẤT!,CONVERTEIX -TE EN ELS PERSONATGES MÉS INUSUALS!,PRETVORITE SE U NAJNEOBIČNIJE LIKOVE!,PROMĚŇTE SE V NEJNEOBVYKLEJŠÍ POSTAVY!,ПЕРЕТВОРЮЙТЕСЯ НА НАЙНЕЗВИЧАЙНІШИХ ПЕРСОНАЖІВ!,BERUBAH MENJADI KARAKTER YANG PALING TIDAK BIASA!,BERTUKAR MENJADI WATAK YANG PALING LUAR BIASA!,FORDULJON A LEGSZOKATLANABB KARAKTEREKKÉ!,सबसे असामान्य पात्रों में मुड़ें!
Text33ID,,"HUGE COLLECTION OF MODS, MAPS AND SKINS!",مجموعة ضخمة من التعديلات والخرائط والجلود!,大量的mod，地图和皮肤收集！,"KÆMPE SAMLING AF MODS, KORT OG SKIND!","ENORME VERZAMELING MODS, KAARTEN EN HUIDEN!","HIIGLASLIK MODIFIKATSIOONIDE, KAARTIDE JA NAHKADE KOLLEKTSIOON!","VALTAVA KOKOELMA MODIT, KARTAT JA NAHAT!","ÉNORME COLLECTION DE MODS, CARTES ET SKINS!","RIESIGE SAMMLUNG VON MODS, KARTEN UND SKINS!","ΤΕΡΆΣΤΙΑ ΣΥΛΛΟΓΉ MODS, ΧΆΡΤΕΣ ΚΑΙ ΔΈΡΜΑΤΑ!","אוסף ענק של מצבים, מפות ועורות!","ENORME COLLEZIONE DI MOD, MAPPE E SKIN!",MOD、マップ、スキンの巨大なコレクション！,"엄청난 모드,지도 및 스킨 컬렉션!","MILZĪGA MODU, KARŠU UN ĀDU KOLEKCIJA!","DIDŽIULĖ MODIFIKACIJŲ, ŽEMĖLAPIŲ IR ODOS KOLEKCIJA!","STOR SAMLING AV MODS, KART OG SKINN!","OGROMNA KOLEKCJA MODÓW, MAP I SKÓR!","ENORME COLEÇÃO DE MODS, MAPAS E PELES!","COLECȚIE URIAȘĂ DE MOD -URI, HĂRȚI ȘI PIEI!","ОГРОМНАЯ КОЛЛЕКЦИЯ МОДОВ, КАРТ И СКИНОВ!","OBROVSKÁ ZBIERKA MODOV, MÁP A KOŽÍ!","OGROMNA ZBIRKA MODOV, ZEMLJEVIDOV IN KOŽ!","¡ENORME COLECCIÓN DE MODIFICACIONES, MAPAS Y PIELES!","ENORM SAMLING AV MODS, KARTOR OCH SKINN!",คอลเลกชันขนาดใหญ่ของ MODS แผนที่และสกิน!,"MODLAR, HARITALAR VE DERILERIN BÜYÜK KOLEKSIYONU!","BỘ SƯU TẬP LỚN CÁC MOD, BẢN ĐỒ VÀ DA!","ENORME COL·LECCIÓ DE MODIFICACIONS, MAPES I PELLS!","OGROMNA KOLEKCIJA MODOVA, KARATA I KOŽE!","OBROVSKÁ SBÍRKA MODŮ, MAP A KŮŽE!","ВЕЛИЧЕЗНА КОЛЕКЦІЯ МОДІВ, КАРТ І СКІНІВ!","KOLEKSI BESAR MOD, PETA, DAN KULIT!","KOLEKSI MOD, PETA DAN KULIT YANG BESAR!","HATALMAS MODOK, TÉRKÉPEK ÉS BŐRGYŰJTEMÉNY!","MODS, नक्शे और खाल का विशाल संग्रह!"
Text34ID,,INSTALL THE BEST AND UNIQUE ADD-ONS IN 1 CLICK!,قم بتثبيت أفضل الوظائف الإضافية الفريدة والفريدة في 1 نقرة!,单击1点单击安装最佳和独特的附加组件！,INSTALLER DE BEDSTE OG UNIKKE TILFØJELSER I 1 KLIK!,INSTALLEER DE BESTE EN UNIEKE ADD-ONS IN 1 KLIK!,INSTALLIGE PARIMAD JA AINULAADSED LISANDMOODULID ÜHELE KLÕPSULE!,ASENNA PARHAAT JA AINUTLAATUISET LISÄOSAT 1 NAPSAUTUKSELLA!,INSTALLEZ LES MODULES COMPLÉMENTAIRES LES MEILLEURS ET UNIQUES EN 1 CLIC!,INSTALLIEREN SIE DIE BESTEN UND EINDEUTIGEN ADD-ONS IN 1 KLICK!,ΕΓΚΑΤΑΣΤΉΣΤΕ ΤΑ ΚΑΛΎΤΕΡΑ ΚΑΙ ΜΟΝΑΔΙΚΆ ΠΡΌΣΘΕΤΑ ΣΕ 1 ΚΛΙΚ!,התקן את התוספות הטובות והייחודיות ביותר בלחיצה אחת!,INSTALLA I COMPONENTI AGGIUNTIVI MIGLIORI E UNICI IN 1 CLIC!,1クリックに最高でユニークなアドオンをインストールしてください！,1 번의 클릭으로 최고의 독특한 애드온을 설치하십시오!,INSTALĒJIET LABĀKOS UN UNIKĀLOS PAPILDINĀJUMUS AR VIENU KLIKŠĶI!,ĮDIEKITE GERIAUSIUS IR UNIKALIUS PRIEDUS PER 1 PASPAUDIMĄ!,INSTALLER DE BESTE OG UNIKE TILLEGGENE I 1 KLIKK!,ZAINSTALUJ NAJLEPSZE I UNIKALNE DODATKI W 1 KLIKNIĘCIU!,INSTALE OS MELHORES E EXCLUSIVOS COMPLEMENTOS EM 1 CLIQUE!,INSTALAȚI CELE MAI BUNE ȘI UNICE SUPLIMENTE ÎN 1 CLIC!,УСТАНАВЛИВАЙТЕ ЛУЧШИЕ И УНИКАЛЬНЫЕ ДОПОЛНЕНИЯ В 1 КЛИК!,NAINŠTALUJTE NAJLEPŠIE A JEDINEČNÉ DOPLNKY NA 1 KLIKNITE!,NAMESTITE NAJBOLJŠE IN EDINSTVENE DODATKE V 1 KLIK!,"INSTALE LOS COMPLEMENTOS MEJORES Y ÚNICOS EN 1, HAGA CLIC.",INSTALLERA DE BÄSTA OCH UNIKA TILLÄGGEN I 1 KLICK!,ติดตั้งส่วนเสริมที่ดีที่สุดและไม่ซ้ำกันใน 1 คลิก!,EN IYI VE BENZERSIZ EKLENTILERI 1 TIKLAMAYA YÜKLEYIN!,CÀI ĐẶT CÁC TIỆN ÍCH BỔ SUNG TỐT NHẤT VÀ ĐỘC ĐÁO TRONG 1 NHẤP CHUỘT!,INSTAL·LEU ELS COMPLEMENTS MILLORS I ÚNICS EN 1 CLIC.,INSTALIRAJTE NAJBOLJE I JEDINSTVENE DODATKE U 1 KLIK!,NAINSTALUJTE NEJLEPŠÍ A JEDINEČNÉ DOPLŇKY DO 1 KLIKNUTÍ!,ВСТАНОВЛЮЙТЕ НАЙКРАЩІ ТА УНІКАЛЬНІ ДОДАТКИ В 1 КЛІК!,INSTAL ADD-ON TERBAIK DAN UNIK DALAM 1 KLIK!,PASANG TAMBAHAN TERBAIK DAN UNIK DALAM 1 KLIK!,TELEPÍTSE A LEGJOBB ÉS EGYEDI KIEGÉSZÍTŐKET 1 KATTINTÁSSAL!,1 क्लिक में सबसे अच्छा और अद्वितीय ऐड-ऑन स्थापित करें!
Text35ID,,DON'T MISS THIS SPECIAL OFFER!,لا تفوت هذا العرض الخاص!,不要错过这个特殊的报价！,GÅ IKKE GLIP AF DETTE SÆRLIGE TILBUD!,MIS DEZE SPECIALE AANBIEDING NIET!,ÄRA JÄTA SEDA ERIPAKKUMIST KASUTAMATA!,ÄLÄ MISSAA TÄTÄ ERIKOISTARJOUSTA!,NE MANQUEZ PAS CETTE OFFRE SPÉCIALE!,VERPASSEN SIE NICHT DIESES SONDERANGEBOT!,ΜΗΝ ΧΆΣΕΤΕ ΑΥΤΉΝ ΤΗΝ ΕΙΔΙΚΉ ΠΡΟΣΦΟΡΆ!,אל תחמיץ את ההצעה המיוחדת הזו!,NON PERDERE QUESTA OFFERTA SPECIALE!,この特別なオファーをお見逃しなく！,이 특별 제안을 놓치지 마세요!,NEPALAIDIET GARĀM ŠO ĪPAŠO PIEDĀVĀJUMU!,NEPRALEISKITE ŠIO YPATINGO PASIŪLYMO!,IKKE GÅ GLIPP AV DETTE SPESIELLE TILBUDET!,NIE PRZEGAP TEJ SPECJALNEJ OFERTY!,NÃO PERCA ESTA OFERTA ESPECIAL!,NU RATAȚI ACEASTĂ OFERTĂ SPECIALĂ!,НЕ ПРОПУСТИТЕ ЭТО СПЕЦИАЛЬНОЕ ПРЕДЛОЖЕНИЕ!,NENECHAJTE SI UJSŤ TÚTO ŠPECIÁLNU PONUKU!,NE ZAMUDITE TE POSEBNE PONUDBE!,¡NO TE PIERDAS ESTA OFERTA ESPECIAL!,MISSA INTE DETTA SPECIALERBJUDANDE!,อย่าพลาดข้อเสนอพิเศษนี้!,BU ÖZEL TEKLIFI KAÇIRMAYIN!,ĐỪNG BỎ LỠ ƯU ĐÃI ĐẶC BIỆT NÀY!,NO US PERDEU AQUESTA OFERTA ESPECIAL!,NE PROPUSTITE OVU POSEBNU PONUDU!,NENECHTE SI UJÍT TUTO SPECIÁLNÍ NABÍDKU!,НЕ ПРОПУСТІТЬ ЦЮ СПЕЦІАЛЬНУ ПРОПОЗИЦІЮ!,JANGAN LEWATKAN PENAWARAN KHUSUS INI!,JANGAN TERLEPAS TAWARAN ISTIMEWA INI!,NE HAGYJA KI EZT A KÜLÖNLEGES AJÁNLATOT!,इस विशेष प्रस्ताव को याद मत करो!
Text36ID,,Want to start for FREE?,تريد أن تبدأ مجانا؟,想免费开始吗？,VIL DU STARTE GRATIS?,WIL JE GRATIS BEGINNEN?,KAS SOOVITE ALUSTADA TASUTA?,HALUATKO ALOITTAA ILMAISEKSI?,VOUS VOULEZ COMMENCER GRATUITEMENT?,MÖCHTEN SIE KOSTENLOS ANFANGEN?,ΘΈΛΕΤΕ ΝΑ ΞΕΚΙΝΉΣΕΤΕ ΔΩΡΕΆΝ;,רוצה להתחיל בחינם?,VUOI INIZIARE GRATUITAMENTE?,無料で始めたいですか？,무료로 시작하고 싶습니까?,VAI VĒLATIES SĀKT BEZ MAKSAS?,NORITE PRADĖTI NEMOKAMAI?,VIL DU STARTE GRATIS?,CHCESZ ZACZĄĆ ZA DARMO?,QUER COMEÇAR DE GRAÇA?,VREI SĂ ÎNCEPI GRATUIT?,Хотите начать БЕСПЛАТНО?,CHCETE ZAČAŤ ZADARMO?,ŽELITE ZAČETI BREZPLAČNO?,¿QUIERES COMENZAR GRATIS?,VILL DU BÖRJA GRATIS?,ต้องการเริ่มฟรีหรือไม่?,ÜCRETSIZ BAŞLAMAK ISTER MISINIZ?,BẠN MUỐN BẮT ĐẦU MIỄN PHÍ?,VOLEU COMENÇAR DE FRANC?,ŽELITE POČETI BESPLATNO?,CHCETE ZAČÍT ZDARMA?,Хочете почати БЕЗКОШТОВНО?,INGIN MEMULAI SECARA GRATIS?,MAHU BERMULA SECARA PERCUMA?,SZERETNE INGYEN KEZDENI?,मुफ्त में शुरू करना चाहते हैं?
Text37ID,,Yes,نعم,是的,JA,JA,JAH,JOO,OUI,JA,ΝΑΊ,כן,SÌ,はい,예,JĀ,TAIP,JA,TAK,SIM,DA,Да,ÁNO,DA,SÍ,JA,ใช่,EVET,ĐÚNG,SÍ,DA,ANO,Так,YA,YA,IGEN,हाँ
Text38ID,,No,رقم,不,INGEN,NEE,MITTE,EI,NON,NEIN,ΟΧΙ,לא,NO,いいえ,아니,NĒ,NE,NEI,NIE,NÃO,NU,Нет,NIE,NE,NO,NEJ,ไม่,NUMARA,KHÔNG,NO,NE,NE,Ні,TIDAK,TIDAK,NEM,नहीं
,,,ar,zh,da,nl,et,fi,fr,de,el,he,it,ja,ko,lv,lt,no,pl,pt,ro,ru,sk,sl,es,sv,th,tr,vi,ca,hr,cs,uk,id,ms,hu,hi
iOSButtonID,,CONTINUE,استمر,繼續,DOORGAAN MET,DOORGAAN MET,JÄTKA,JATKAA,CONTINUEZ,FORTSETZEN,ΝΑ ΣΥΝΕΧΙΣΕΙ,לְהַמשִׁיך,CONTINUA,継続する,계속하다,TURPINĀT,TĘSTI,FORTSETTE,KONTYNTYNUJ,PROSSEGUIR,CONTINUA,ПРОДОЛЖИТЬ,ĎALEJ,NASTAVI,SEGUIR,FORTSÄTTA,ดำเนินต่อ,DEVAM ET,TIẾP TỤC,CONTINUA,NASTAVITI,POKRAČOVAT,ПРОДОВЖИТИ,MELANJUTKAN,Teruskan,FOLYTATNI,जारी रखें
iOSStart3daysTitleID,,"Start 3-days for FREE
Then $5.99/week",,,,,,,,,,,,,,,,,,,,,,,,,,,,,,,,,,,
,,,,,,,,,,,,,,,,,,,,,,,,,,,,,,,,,,,,,
AndroidBtnID,,"3 days free trial
then $29.99/week",ابدأ مجانًا,免費開始,Start GRATIS,Begin GRATIS,Alustage TASUTA,Aloita ILMAISEKSI,Commencer GRATUITEMENT,KOSTENLOS starten,Ξεκινήστε ΔΩΡΕΑΝ,התחל בחינם,Inizia GRATIS,無料で始めましょう,무료로 시작,Sāciet BEZ MAKSAS,Pradėkite NEMOKAMAI,Kom i gang GRATIS,Rozpocznij ZA DARMO,Comece GRATUITAMENTE,Începeți GRATUIT,Начать БЕСПЛАТНО,Začnite ZADARMO,Začnite BREZPLAČNO,Empiece GRATIS,Börja GRATIS,เริ่มฟรี,ÜCRETSİZ Başlayın,Bắt đầu MIỄN PHÍ,Comença GRATIS,Počnite BESPLATNO,Start ZDARMA,Розпочати БЕЗКОШТОВНО,Mulai GRATIS,Mulakan secara PERCUMA,Kezdje INGYEN,मुफ़्त में शुरू करें
PrivacyID,,Privacy Policy,سياسة الخصوصية,隐私政策,Fortrolighedspolitik,Privacybeleid,Privaatsuspoliitika,Tietosuojakäytäntö,Politique de confidentialité,Datenschutz Bestimmungen,Πολιτική απορρήτου,מדיניות פרטיות,Politica sulla riservatezza,プライバシーポリシー,개인 정보 정책,Privātuma politika,Privatumo politika,Personvernregler,Polityka prywatności,Política de Privacidade,Politica de Confidențialitate,Политика конфиденциальности,Zásady ochrany osobných údajov,Politika zasebnosti,Política de privacidad,Integritets policy,นโยบายความเป็นส่วนตัว,Gizlilik Politikası,"Chính sách
bảo mật",Política de privacitat,Pravila o privatnosti,Zásady ochrany osobních údajů,Політика конфіденційності,Kebijakan pribadi,Dasar Privasi,Adatvédelmi irányelvek,गोपनीयता नीति
TermsID,,Terms of Use,شروط الاستخدام,使用条款,Brugsbetingelser,Gebruiksvoorwaarden,Kasutustingimused,Käyttöehdot,Conditions d'utilisation,Nutzungsbedingungen,Οροι χρήσης,תנאי שימוש,Termini di utilizzo,利用規約,이용 약관,Lietošanas noteikumi,Naudojimo sąlygos,Vilkår for bruk,Warunki korzystania,Termos de uso,Termeni de utilizare,Условия Использования,Podmienky používania,Pogoji uporabe,Términos de Uso,Villkor,ข้อกำหนดการใช้งาน,Kullanım Şartları,Điều khoản sử dụng,Condicions d'ús,Uvjeti korištenja,Podmínky použití,Умови користування,Syarat Penggunaan,Syarat Penggunaan,Használati feltételek,उपयोग की शर्तें
iOSAfterID,,"* This trial automatically renews into a paid subscription and will continue to automatically renew until you cancel.
* You need to be subscribed to use this app. No free content.
* Subscription payments will be charged to your iTunes account at confirmation of your purchase.
* Subscriptions will automatically renew and payment will be charged to your iTunes account unless auto-renew is turned off at least 24 hours prior to the end of the current period. The cost of the renewal depends on your Subscription Plan. Our standard Subscription Plans are:
* 1-week Subscription ($5.99)
For other currencies, the price corresponds to the same price tier on the App Store Pricing Matrix.
* Subscription with a free trial period will automatically renew to a paid subscription. You can cancel or manage your free trial’s auto-renewal in your Account Settings after purchase. The cancellation will take effect 24-hours after the last day of the current subscription period and you will be downgraded to the free service.
* Please note: any unused portion of a free trial period of 3 days(if offered) will be forfeited when you purchase a premium subscription during the free trial period.
Please, for more information see our Privacy Policy and Terms of Use.","* يتم تجديد هذه النسخة التجريبية تلقائيًا لتصبح اشتراكًا مدفوعًا وسيستمر تجديدها تلقائيًا حتى تقوم بالإلغاء.
* يجب أن تكون مشتركًا لاستخدام هذا التطبيق. لا يوجد محتوى مجاني.
* سيتم تحميل مدفوعات الاشتراك على حساب iTunes الخاص بك عند تأكيد الشراء.
* سيتم تجديد الاشتراكات تلقائيًا وسيتم فرض الدفع على حساب iTunes الخاص بك ما لم يتم إيقاف التجديد التلقائي قبل 24 ساعة على الأقل من نهاية الفترة الحالية. تعتمد تكلفة التجديد على خطة الاشتراك الخاصة بك. خطط الاشتراك القياسية لدينا هي:
* اشتراك لمدة أسبوع (5.99 دولار)
بالنسبة للعملات الأخرى ، يتوافق السعر مع نفس مستوى السعر في مصفوفة أسعار متجر التطبيقات.
* سيتم تجديد الاشتراك مع فترة تجريبية مجانية تلقائيًا إلى اشتراك مدفوع. يمكنك إلغاء أو إدارة التجديد التلقائي للإصدار التجريبي المجاني في إعدادات حسابك بعد الشراء. سيسري الإلغاء بعد 24 ساعة من اليوم الأخير من فترة الاشتراك الحالية وسيتم تخفيض تصنيفك إلى الخدمة المجانية.
* يرجى ملاحظة: أي جزء غير مستخدم من فترة تجريبية مجانية مدتها 3 أيام (إذا تم عرضه) سيتم مصادرته عند شرائك اشتراكًا مميزًا خلال فترة التجربة المجانية.
من فضلك ، لمزيد من المعلومات ، راجع سياسة الخصوصية وشروط الاستخدام. ","“ *該試用版會自動續訂為付費訂閱，並且將繼續自動續訂，直到您取消。
*您需要訂閱才能使用此應用程序。沒有免費內容。
*確認購買後，訂閱付款將從您的iTunes帳戶中扣除。
*除非自動續訂在當前期限結束前至少24小時關閉，否則訂閱將自動續訂，並且付款將從您的iTunes帳戶中扣除。續訂費用取決於您的訂購計劃。我們的標準訂閱計劃是：
* 1週訂閱（$ 5.99）
對於其他貨幣，價格對應於App Store定價矩陣中的相同價格層。
*具有免費試用期的訂閱將自動續訂為付費訂閱。購買後，您可以在“帳戶設置”中取消或管理免費試用版的自動續訂。取消將在當前訂閱期的最後一天24小時後生效，您將被降級為免費服務。
*請注意：如果您在免費試用期內購買高級訂閱，則3天免費試用期（如果提供）中未使用的部分將被沒收。
請獲取更多信息，請參閱我們的隱私政策和使用條款。”","* Denne prøveversion fornyes automatisk til et betalt abonnement og vil fortsat blive automatisk fornyet, indtil du annullerer.
* Du skal abonnere for at bruge denne app. Intet gratis indhold.
* Abonnementsbetalinger opkræves på din iTunes-konto ved bekræftelse af dit køb.
* Abonnementer fornyes automatisk, og betaling opkræves på din iTunes-konto, medmindre automatisk fornyelse er slået fra mindst 24 timer inden udgangen af ​​den nuværende periode. Omkostningerne ved fornyelsen afhænger af din abonnementsplan. Vores standardabonnementsplaner er:
* 1-ugers abonnement ($ 5,99)
For andre valutaer svarer prisen til det samme prisniveau i App Store Pricing Matrix.
* Abonnement med en gratis prøveperiode fornyes automatisk til et betalt abonnement. Du kan annullere eller administrere den automatiske fornyelse af din gratis prøveperiode i dine kontoindstillinger efter køb. Annulleringen træder i kraft 24 timer efter den sidste dag i den aktuelle abonnementsperiode, og du nedgraderes til den gratis service.
* Bemærk: enhver ubrugt del af en gratis prøveperiode på 3 dage (hvis tilbudt) fortabes, når du køber et premium-abonnement i den gratis prøveperiode.
For mere information se vores fortrolighedspolitik og brugsvilkår. ","* Deze proefperiode wordt automatisch verlengd tot een betaald abonnement en wordt automatisch verlengd totdat u opzegt.
* Je moet geabonneerd zijn om deze app te gebruiken. Geen gratis inhoud.
* Abonnementsbetalingen worden bij bevestiging van uw aankoop in rekening gebracht op uw iTunes-account.
* Abonnementen worden automatisch verlengd en de betaling wordt in rekening gebracht op uw iTunes-account, tenzij automatisch verlengen ten minste 24 uur voor het einde van de huidige periode is uitgeschakeld. De kosten van de verlenging zijn afhankelijk van uw abonnementsplan. Onze standaard abonnementen zijn:
* Abonnement van 1 week ($ 5,99)
Voor andere valuta's komt de prijs overeen met hetzelfde prijsniveau in de App Store-prijsmatrix.
* Abonnement met een gratis proefperiode wordt automatisch verlengd naar een betaald abonnement. U kunt de automatische verlenging van uw gratis proefperiode na aankoop annuleren of beheren in uw accountinstellingen. De annulering wordt 24 uur na de laatste dag van de huidige abonnementsperiode van kracht en u wordt gedowngraded naar de gratis service.
* Let op: elk ongebruikt deel van een gratis proefperiode van 3 dagen (indien aangeboden) wordt verbeurd wanneer u een premium-abonnement aanschaft tijdens de gratis proefperiode.
Raadpleeg voor meer informatie ons privacybeleid en onze gebruiksvoorwaarden. ","* See prooviversioon uueneb automaatselt tasuliseks tellimuseks ja jätkub automaatselt kuni katkestamiseni.
* Selle rakenduse kasutamiseks peate olema tellitud. Tasuta sisu puudub.
* Tellimuse eest tasutakse teie iTunes'i kontolt teie ostu kinnitamisel.
* Tellimused uuendatakse automaatselt ja teie iTunes'i kontolt võetakse makse, kui automaatne uuendamine pole välja lülitatud vähemalt 24 tundi enne praeguse perioodi lõppu. Uuendamise hind sõltub teie liitumisplaanist. Meie standardsed liitumisplaanid on:
* 1-nädalane tellimus (5, 99 dollarit)
Teiste valuutade puhul vastab hind samale hinnatasemele App Store'i hinnakujundusmaatriksis.
* Tasuta prooviperioodiga liitumine uueneb automaatselt tasuliseks. Pärast ostu saate tasuta prooviversiooni automaatse pikendamise tühistada või hallata oma konto seadetes. Tühistamine jõustub 24 tundi pärast praeguse liitumisperioodi viimast päeva ja teid viiakse üle tasuta teenusele.
* Pange tähele: tasuta prooviperioodi jooksul 3-päevase tasuta prooviperioodi (kui seda pakutakse) kasutamata osa minetatakse.
Palun vaadake lisateavet meie privaatsuseeskirjadest ja kasutustingimustest. ","* Tämä kokeilu uusitaan automaattisesti maksetuksi tilaukseksi ja jatkuu automaattisesti, kunnes peruutat tilauksen.
* Sinun on tilattava tämän sovelluksen käyttö. Ei ilmaista sisältöä.
* Tilausmaksut veloitetaan iTunes-tililtäsi ostoksen vahvistamisen yhteydessä.
* Tilaukset uusitaan automaattisesti ja maksu veloitetaan iTunes-tililtäsi, ellei automaattista uusimista ole poistettu käytöstä vähintään 24 tuntia ennen kuluvan ajanjakson loppua. Uusimisen hinta riippuu tilaussuunnitelmastasi. Tavalliset tilaussuunnitelmamme ovat:
* Yhden viikon tilaus (5,99 dollaria)
Muiden valuuttojen hinta vastaa samaa hintatasoa App Storen hinnoittelumatriisissa.
* Ilmaisen kokeilujakson tilaus uusitaan automaattisesti maksulliseksi. Voit peruuttaa tai hallita ilmaisen kokeilujakson automaattista uusimista tiliasetuksissa ostamisen jälkeen. Peruutus tulee voimaan 24 tuntia kuluvan tilausjakson viimeisen päivän jälkeen ja sinut siirretään ilmaispalveluun.
* Huomaa: Kolmen päivän ilmaisen kokeilujakson käyttämätön osa (jos tarjotaan) menetetään, kun ostat premium-tilauksen ilmaisen kokeilujakson aikana.
Ole hyvä ja katso lisätietoja tietosuojakäytännöstämme ja käyttöehdoistamme. ","* Cet essai se renouvelle automatiquement en un abonnement payant et continuera à se renouveler automatiquement jusqu'à ce que vous l'annuliez.
* Vous devez être abonné pour utiliser cette application. Pas de contenu gratuit.
* Les paiements d'abonnement seront facturés sur votre compte iTunes lors de la confirmation de votre achat.
* Les abonnements seront automatiquement renouvelés et le paiement sera débité de votre compte iTunes à moins que le renouvellement automatique ne soit désactivé au moins 24 heures avant la fin de la période en cours. Le coût du renouvellement dépend de votre plan d'abonnement. Nos plans d'abonnement standard sont:
* Abonnement d'une semaine (5,99 $)
Pour les autres devises, le prix correspond au même niveau de prix sur la matrice de prix de l'App Store.
* L'abonnement avec une période d'essai gratuite se renouvellera automatiquement en un abonnement payant. Vous pouvez annuler ou gérer le renouvellement automatique de votre essai gratuit dans les paramètres de votre compte après l'achat. L'annulation prendra effet 24 heures après le dernier jour de la période d'abonnement en cours et vous serez rétrogradé au service gratuit.
* Veuillez noter: toute portion inutilisée d'une période d'essai gratuite de 3 jours (si offerte) sera perdue lorsque vous souscrivez un abonnement premium pendant la période d'essai gratuite.
Pour plus d’informations, veuillez consulter notre politique de confidentialité et nos conditions d’utilisation. »","* Diese Testversion verlängert sich automatisch in ein kostenpflichtiges Abonnement und verlängert sich automatisch weiter, bis Sie kündigen.
* Sie müssen abonniert sein, um diese App nutzen zu können. Kein kostenloser Inhalt.
* Abonnementzahlungen werden Ihrem iTunes-Konto bei Bestätigung Ihres Kaufs belastet.
* Abonnements werden automatisch verlängert und die Zahlung wird Ihrem iTunes-Konto belastet, es sei denn, die automatische Verlängerung ist mindestens 24 Stunden vor dem Ende des aktuellen Zeitraums deaktiviert. Die Kosten für die Verlängerung hängen von Ihrem Abonnement ab. Unsere Standardabonnements sind:
* 1-Wochen-Abonnement (5,99 USD)
Für andere Währungen entspricht der Preis der gleichen Preisstufe in der App Store-Preismatrix.
* Ein Abonnement mit einer kostenlosen Testphase wird automatisch auf ein kostenpflichtiges Abonnement verlängert. Sie können die automatische Verlängerung Ihrer kostenlosen Testversion nach dem Kauf in Ihren Kontoeinstellungen stornieren oder verwalten. Die Kündigung wird 24 Stunden nach dem letzten Tag des aktuellen Abonnementzeitraums wirksam und Sie werden auf den kostenlosen Service herabgestuft.
* Bitte beachten Sie: Jeder nicht genutzte Teil eines kostenlosen Testzeitraums von 3 Tagen (falls angeboten) verfällt, wenn Sie während des kostenlosen Testzeitraums ein Premium-Abonnement erwerben.
Weitere Informationen finden Sie in unseren Datenschutzbestimmungen und Nutzungsbedingungen. ","* Αυτή η δοκιμή ανανεώνεται αυτόματα σε συνδρομή επί πληρωμή και θα συνεχίσει να ανανεώνεται αυτόματα μέχρι να την ακυρώσετε.
* Πρέπει να εγγραφείτε για να χρησιμοποιήσετε αυτήν την εφαρμογή. Χωρίς δωρεάν περιεχόμενο.
* Οι πληρωμές συνδρομής θα χρεωθούν στο λογαριασμό σας στο iTunes κατά την επιβεβαίωση της αγοράς σας.
* Οι συνδρομές θα ανανεωθούν αυτόματα και η πληρωμή θα χρεωθεί στον λογαριασμό σας στο iTunes, εκτός εάν η αυτόματη ανανέωση απενεργοποιηθεί τουλάχιστον 24 ώρες πριν από το τέλος της τρέχουσας περιόδου. Το κόστος της ανανέωσης εξαρτάται από το πρόγραμμα εγγραφής σας. Τα τυπικά μας σχέδια συνδρομής είναι:
* Συνδρομή 1 εβδομάδας (5,99 $)
Για άλλα νομίσματα, η τιμή αντιστοιχεί στο ίδιο επίπεδο τιμών στο App Store Pricing Matrix.
* Η συνδρομή με δωρεάν δοκιμαστική περίοδο θα ανανεωθεί αυτόματα σε συνδρομή επί πληρωμή. Μπορείτε να ακυρώσετε ή να διαχειριστείτε την αυτόματη ανανέωση της δωρεάν δοκιμής στις Ρυθμίσεις λογαριασμού μετά την αγορά. Η ακύρωση θα τεθεί σε ισχύ 24 ώρες μετά την τελευταία ημέρα της τρέχουσας περιόδου συνδρομής και θα υποβαθμιστείτε στη δωρεάν υπηρεσία.
* Παρακαλώ σημειώστε: οποιοδήποτε αχρησιμοποίητο τμήμα μιας δωρεάν δοκιμαστικής περιόδου 3 ημερών (εάν προσφέρεται) θα χαθεί όταν αγοράζετε μια συνδρομή premium κατά τη διάρκεια της δωρεάν δοκιμαστικής περιόδου.
Παρακαλώ, για περισσότερες πληροφορίες, ανατρέξτε στην Πολιτική Απορρήτου και στους Όρους Χρήσης. ","* ניסיון זה מתחדש אוטומטית למנוי בתשלום וימשיך להתחדש אוטומטית עד שתבטל.
* עליך להיות מנוי בכדי להשתמש באפליקציה זו. ללא תוכן בחינם.
* תשלומי מנוי יחויבו בחשבון iTunes שלך באישור הרכישה.
* המנויים יחודשו אוטומטית והתשלום יחויב בחשבון iTunes שלך אלא אם כן הכיבוי האוטומטי מושבת לפחות 24 שעות לפני תום התקופה הנוכחית. עלות החידוש תלויה בתכנית המנוי שלך. תוכניות המנוי הסטנדרטיות שלנו הן:
* מנוי לשבוע אחד ($ 5.99)
עבור מטבעות אחרים, המחיר תואם את אותה שכבת מחיר במטריקס התמחור של App Store.
* מנוי עם תקופת ניסיון בחינם יתחדש אוטומטית למנוי בתשלום. תוכל לבטל או לנהל את החידוש האוטומטי של תקופת הניסיון בחינם בהגדרות החשבון שלך לאחר הרכישה. הביטול ייכנס לתוקף 24 שעות לאחר היום האחרון של תקופת המנוי הנוכחית ותועבר לשירות החינמי.
* שימו לב: כל חלק שלא נעשה בו שימוש בתקופת ניסיון בחינם של 3 ימים (אם מוצע) ייפסק בעת רכישת מנוי פרימיום במהלך תקופת הניסיון בחינם.
אנא, לקבלת מידע נוסף עיין במדיניות הפרטיות שלנו ותנאי השימוש. ","* Questa prova si rinnova automaticamente in un abbonamento a pagamento e continuerà a rinnovarsi automaticamente fino all'annullamento.
* Devi essere iscritto per utilizzare questa app. Nessun contenuto gratuito.
* I pagamenti dell'abbonamento verranno addebitati sul tuo account iTunes alla conferma dell'acquisto.
* Gli abbonamenti si rinnoveranno automaticamente e il pagamento verrà addebitato sul tuo account iTunes a meno che il rinnovo automatico non venga disattivato almeno 24 ore prima della fine del periodo corrente. Il costo del rinnovo dipende dal tuo piano di abbonamento. I nostri piani di abbonamento standard sono:
* Abbonamento di 1 settimana ($ 5,99)
Per le altre valute, il prezzo corrisponde allo stesso livello di prezzo nella matrice dei prezzi dell'App Store.
* L'abbonamento con un periodo di prova gratuito si rinnoverà automaticamente a un abbonamento a pagamento. Puoi annullare o gestire il rinnovo automatico della prova gratuita nelle Impostazioni account dopo l'acquisto. La cancellazione avrà effetto 24 ore dopo l'ultimo giorno del periodo di abbonamento corrente e verrai declassato al servizio gratuito.
* Nota: qualsiasi parte inutilizzata di un periodo di prova gratuito di 3 giorni (se offerto) verrà annullato quando si acquista un abbonamento premium durante il periodo di prova gratuito.
Per ulteriori informazioni, consultare la nostra Informativa sulla privacy e i Termini di utilizzo. ","*この試用版は自動的に有料サブスクリプションに更新され、キャンセルするまで自動的に更新されます。
*このアプリを使用するには、サブスクライブする必要があります。無料のコンテンツはありません。
*サブスクリプションの支払いは、購入の確認時にiTunesアカウントに請求されます。
*サブスクリプションは自動的に更新され、現在の期間が終了する少なくとも24時間前に自動更新がオフにされていない限り、支払いはiTunesアカウントに請求されます。更新の費用は、サブスクリプションプランによって異なります。標準のサブスクリプションプランは次のとおりです。
* 1週間のサブスクリプション（$ 5.99）
他の通貨の場合、価格はAppStoreの価格表の同じ価格帯に対応します。
*無料試用期間のあるサブスクリプションは、自動的に有料サブスクリプションに更新されます。購入後、アカウント設定で無料試用版の自動更新をキャンセルまたは管理できます。キャンセルは、現在のサブスクリプション期間の最終日から24時間後に有効になり、無料サービスにダウングレードされます。
*注意：無料試用期間中にプレミアムサブスクリプションを購入すると、3日間の無料試用期間の未使用部分（提供されている場合）は没収されます。
詳細については、プライバシーポリシーと利用規約をご覧ください。」","*이 평가판은 유료 구독으로 자동 갱신되며 취소 할 때까지 자동으로 계속 갱신됩니다.
*이 앱을 사용하려면 구독해야합니다. 무료 콘텐츠가 없습니다.
* 구독 결제는 구매 확인시 iTunes 계정으로 청구됩니다.
* 현재 구독 기간이 끝나기 최소 24 시간 전에 자동 갱신을 해제하지 않으면 구독이 자동으로 갱신되고 결제가 iTunes 계정으로 청구됩니다. 갱신 비용은 구독 플랜에 따라 다릅니다. 표준 구독 계획은 다음과 같습니다.
* 1 주 구독 ($ 5.99)
다른 통화의 경우 가격은 App Store 가격표의 동일한 가격 계층에 해당합니다.
* 무료 평가판 기간이있는 구독은 자동으로 유료 구독으로 갱신됩니다. 구매 후 계정 설정에서 무료 평가판의 자동 갱신을 취소하거나 관리 할 수 ​​있습니다. 취소는 현재 구독 기간의 마지막 날로부터 24 시간 후에 적용되며 무료 서비스로 다운 그레이드됩니다.
* 참고 : 무료 체험 기간 동안 프리미엄 구독을 구매하면 3 일 (제공된 경우)의 무료 체험 기간 중 사용하지 않은 부분은 소멸됩니다.
자세한 내용은 개인 정보 보호 정책 및 이용 약관을 참조하십시오. ","* Šis izmēģinājuma periods automātiski atjaunojas par apmaksātu abonementu un tiks automātiski atjaunots, līdz atcelsit.
* Lai izmantotu šo lietotni, jums ir jābūt abonētam. Nav bezmaksas satura.
* Abonēšanas maksājumi tiks iekasēti no jūsu iTunes konta, apstiprinot pirkumu.
* Abonementi tiks automātiski atjaunoti un maksājums tiks iekasēts no jūsu iTunes konta, ja vien automātiskā atjaunošana nav izslēgta vismaz 24 stundas pirms pašreizējā perioda beigām. Atjaunošanas izmaksas ir atkarīgas no jūsu abonēšanas plāna. Mūsu standarta abonēšanas plāni ir:
* Vienas nedēļas abonements (5,99 ASV dolāri)
Citām valūtām cena atbilst tam pašam cenu līmenim App Store cenu matricā.
* Abonements ar bezmaksas izmēģinājuma periodu automātiski tiks atjaunots uz apmaksātu abonementu. Pēc pirkuma konta iestatījumos varat atcelt vai pārvaldīt bezmaksas izmēģinājuma versijas automātisko atjaunošanu. Atcelšana stāsies spēkā 24 stundas pēc pašreizējā abonēšanas perioda pēdējās dienas, un jūs tiksiet pārcelts uz bezmaksas pakalpojumu.
* Lūdzu, ņemiet vērā: bezmaksas izmēģinājuma perioda 3 dienu neizmantotā daļa (ja tāda tiek piedāvāta) tiks zaudēta, ja bezmaksas izmēģinājuma perioda laikā iegādāsieties augstākās klases abonementu.
Lūdzu, lai iegūtu vairāk informācijas, skatiet mūsu konfidencialitātes politiku un lietošanas noteikumus. ","* Šis bandymas automatiškai atnaujinamas į mokamą prenumeratą ir bus automatiškai atnaujinamas, kol atšauksite.
* Norėdami naudotis šia programa, turite būti užsiprenumeravę. Nėra nemokamo turinio.
* Prenumeratos mokėjimai bus nuskaičiuoti iš jūsų „iTunes“ paskyros patvirtinus pirkinį.
* Prenumeratos bus automatiškai atnaujintos ir mokėjimas bus apmokestintas iš jūsų „iTunes“ paskyros, nebent automatinis atnaujinimas bus išjungtas likus bent 24 valandoms iki dabartinio laikotarpio pabaigos. Atnaujinimo kaina priklauso nuo jūsų prenumeratos plano. Mūsų standartiniai prenumeratos planai yra:
* 1 savaitės prenumerata (5,99 USD)
Kitų valiutų kaina atitinka tą pačią „App Store“ kainodaros matricos kainų pakopą.
* Prenumerata su nemokamu bandomuoju laikotarpiu automatiškai atnaujinama į mokamą prenumeratą. Galite atšaukti arba tvarkyti nemokamo bandomojo laikotarpio automatinį atnaujinimą „Paskyros nustatymuose“ po pirkimo. Atšaukimas įsigalios praėjus 24 valandoms po paskutinės dabartinio prenumeratos laikotarpio dienos ir jums bus suteikta nemokama paslauga.
* Atkreipkite dėmesį: bet kuri nepanaudota nemokamo 3 dienų bandomojo laikotarpio dalis (jei bus pasiūlyta) bus prarasta, kai nemokamo bandomojo laikotarpio metu įsigysite aukščiausios kokybės prenumeratą.
Norėdami gauti daugiau informacijos, skaitykite mūsų privatumo politiką ir naudojimo sąlygas. ","* Denne prøveperioden fornyes automatisk til et betalt abonnement og vil fortsette å automatisk fornye til du avbryter.
* Du må abonnere for å bruke denne appen. Intet gratis innhold.
* Abonnementsbetalinger belastes iTunes-kontoen din ved bekreftelse av kjøpet.
* Abonnementene fornyes automatisk, og betaling vil bli belastet iTunes-kontoen din med mindre automatisk fornyelse er slått av minst 24 timer før utløpet av inneværende periode. Kostnaden for fornyelsen avhenger av abonnementsplanen din. Våre standard abonnementsplaner er:
* 1-ukers abonnement ($ 5,99)
For andre valutaer tilsvarer prisen samme prisnivå på App Store-prismatrisen.
* Abonnement med en gratis prøveperiode fornyes automatisk til et betalt abonnement. Du kan kansellere eller administrere den automatiske fornyelsen av den gratis prøveperioden i kontoinnstillingene etter kjøpet. Avbestillingen vil tre i kraft 24 timer etter den siste dagen i den nåværende abonnementsperioden, og du vil bli nedgradert til gratis tjenesten.
* Merk: enhver ubrukt del av en gratis prøveperiode på 3 dager (hvis tilbudt) blir fortapt når du kjøper et premiumabonnement i løpet av den gratis prøveperioden.
Vennligst, for mer informasjon, se vår personvernpolicy og vilkår for bruk. ","* Ten okres próbny automatycznie odnawia się na płatną subskrypcję i będzie automatycznie odnawiany do momentu anulowania.
* Musisz być subskrybentem, aby korzystać z tej aplikacji. Brak bezpłatnych treści.
* Opłaty za subskrypcje będą pobierane z Twojego konta iTunes po potwierdzeniu zakupu.
* Subskrypcje zostaną automatycznie odnowione, a płatność zostanie pobrana z Twojego konta iTunes, chyba że automatyczne odnawianie zostanie wyłączone co najmniej 24 godziny przed końcem bieżącego okresu. Koszt odnowienia zależy od Twojego Planu Abonamentowego. Nasze standardowe plany abonamentowe to:
* Subskrypcja na 1 tydzień (5,99 USD)
W przypadku innych walut cena odpowiada tej samej warstwie cenowej w tabeli cen App Store.
* Subskrypcja z bezpłatnym okresem próbnym zostanie automatycznie odnowiona na płatną subskrypcję. Możesz anulować automatyczne odnawianie bezpłatnego okresu próbnego lub zarządzać nim w Ustawieniach konta po zakupie. Anulowanie wejdzie w życie 24 godziny po ostatnim dniu bieżącego okresu subskrypcji i nastąpi obniżenie do bezpłatnej usługi.
* Uwaga: każda niewykorzystana część bezpłatnego okresu próbnego trwającego 3 dni (jeśli jest oferowana) zostanie utracona w przypadku zakupu subskrypcji premium w trakcie bezpłatnego okresu próbnego.
Więcej informacji można znaleźć w naszej Polityce prywatności i Warunkach użytkowania ”.","* Este teste renova automaticamente em uma assinatura paga e continuará a renovar automaticamente até que você cancele.
* Você precisa estar inscrito para usar este aplicativo. Nenhum conteúdo gratuito.
* Os pagamentos da assinatura serão cobrados em sua conta do iTunes na confirmação de sua compra.
* As assinaturas serão renovadas automaticamente e o pagamento será cobrado em sua conta do iTunes, a menos que a renovação automática seja desativada pelo menos 24 horas antes do final do período atual. O custo da renovação depende do seu Plano de Assinatura. Nossos Planos de Assinatura padrão são:
* Assinatura de 1 semana (US $ 5,99)
Para outras moedas, o preço corresponde ao mesmo nível de preço na Matriz de Preços da App Store.
* A assinatura com um período de teste gratuito será renovada automaticamente para uma assinatura paga. Você pode cancelar ou gerenciar a renovação automática do seu teste gratuito nas Configurações da conta após a compra. O cancelamento entrará em vigor 24 horas após o último dia do período de assinatura atual e você será rebaixado para o serviço gratuito.
* Observação: qualquer porção não utilizada de um período de teste gratuito de 3 dias (se oferecido) será perdida quando você comprar uma assinatura premium durante o período de teste gratuito.
Por favor, para mais informações consulte nossa Política de Privacidade e Termos de Uso.","* Această încercare se reînnoiește automat într-un abonament plătit și va continua să se reînnoiască automat până când anulați.
* Trebuie să fiți abonați pentru a utiliza această aplicație. Fără conținut gratuit.
* Plățile prin abonament vor fi încasate în contul dvs. iTunes la confirmarea achiziției.
* Abonamentele se vor reînnoi automat și plata va fi încasată în contul dvs. iTunes, cu excepția cazului în care reînnoirea automată este dezactivată cu cel puțin 24 de ore înainte de sfârșitul perioadei curente. Costul reînnoirii depinde de planul dvs. de abonament. Planurile noastre standard de abonament sunt:
* Abonament de o săptămână (5,99 USD)
Pentru alte valute, prețul corespunde aceluiași nivel de preț din Matrice de prețuri din App Store.
* Abonamentul cu o perioadă de încercare gratuită se va reînnoi automat la un abonament plătit. Puteți anula sau gestiona reînnoirea automată a perioadei de încercare gratuită în Setările contului după cumpărare. Anularea va intra în vigoare 24 de ore după ultima zi a perioadei actuale de abonament și veți fi retrogradat la serviciul gratuit.
* Vă rugăm să rețineți: orice porțiune neutilizată dintr-o perioadă de încercare gratuită de 3 zile (dacă este oferită) va fi pierdută atunci când achiziționați un abonament premium în perioada de încercare gratuită.
Vă rugăm, pentru mai multe informații, consultați Politica noastră de confidențialitate și Termenii de utilizare.","* Эта пробная версия автоматически преобразуется в платную подписку и будет продолжать автоматически продлеваться до тех пор, пока вы не отмените подписку.
* Вы должны быть подписаны, чтобы использовать это приложение. Нет бесплатного контента.
* Оплата подписки будет снята с вашей учетной записи iTunes при подтверждении покупки.
* Подписки будут автоматически продлеваться, и оплата будет снята с вашей учетной записи iTunes, если автоматическое продление не будет отключено по крайней мере за 24 часа до окончания текущего периода. Стоимость продления зависит от вашего плана подписки. Наши стандартные планы подписки:
* Подписка на 1 неделю (5,99 доллара США)
Для других валют цена соответствует тому же ценовому уровню в Матрице цен в App Store.
* Подписка с бесплатным пробным периодом автоматически обновляется до платной подписки. Вы можете отменить или управлять автоматическим продлением бесплатной пробной версии в настройках учетной записи после покупки. Отмена вступит в силу через 24 часа после последнего дня текущего периода подписки, и вы будете переведены на бесплатную услугу.
* Обратите внимание: любая неиспользованная часть трехдневного бесплатного пробного периода (если предлагается) будет аннулирована при покупке премиальной подписки в течение бесплатного пробного периода.
Пожалуйста, для получения дополнительной информации см. Нашу Политику конфиденциальности и Условия использования.","* Táto skúšobná verzia sa automaticky obnovuje na platené predplatné a bude sa automaticky obnovovať, kým odber nezrušíte.
* Ak chcete používať túto aplikáciu, musíte si predplatiť. Žiadny obsah zadarmo.
* Platby za predplatné sa zúčtujú na váš účet iTunes pri potvrdení vášho nákupu.
* Predplatné sa automaticky obnovia a platba sa zúčtuje na váš účet iTunes, pokiaľ automatické obnovenie nie je vypnuté najmenej 24 hodín pred koncom aktuálneho obdobia. Cena obnovenia závisí od vášho predplatného. Naše štandardné plány predplatného sú:
* Týždňové predplatné (5,99 USD)
Pre ostatné meny cena zodpovedá rovnakej cenovej úrovni v cenovej matici App Store.
* Predplatné s bezplatným skúšobným obdobím sa automaticky obnoví na platené predplatné. Po zakúpení môžete zrušiť alebo spravovať automatické obnovenie bezplatnej skúšobnej verzie v Nastaveniach účtu. Zrušenie nadobudne platnosť 24 hodín po poslednom dni aktuálneho obdobia predplatného a vy budete mať nižší stupeň bezplatnej služby.
* Poznámka: akákoľvek nevyužitá časť bezplatného skúšobného obdobia 3 dní (ak je ponúkaná) prepadne, keď si zakúpite prémiové predplatné počas bezplatného skúšobného obdobia.
Viac informácií nájdete v našich Pravidlách ochrany osobných údajov a Podmienkach používania.","* Ta preskus se samodejno obnovi v plačljivo naročnino in se bo samodejno podaljšal, dokler ne prekličete.
* Za uporabo te aplikacije morate biti naročeni. Brez brezplačne vsebine.
* Naročnina se zaračuna na vaš račun iTunes ob potrditvi nakupa.
* Naročnine se bodo samodejno podaljšale in plačilo vam bo zaračunano na račun iTunes, razen če samodejno podaljšanje ni izklopljeno vsaj 24 ur pred koncem tekočega obdobja. Stroški podaljšanja so odvisni od vašega naročniškega načrta. Naši standardni naročniški načrti so:
* 1-tedenska naročnina (5,99 USD)
Za druge valute cena ustreza enakemu cenovnemu razredu v App Store Pricing Matrix.
* Naročnina z brezplačnim preskusnim obdobjem se samodejno obnovi na plačljivo naročnino. Po nakupu lahko samodejno obnovite brezplačno preskusno različico ali jo upravljate v nastavitvah računa. Preklic bo začel veljati 24 ur po zadnjem dnevu trenutnega naročniškega obdobja in znižali se boste na brezplačno storitev.
* Prosimo, upoštevajte: kateri koli neuporabljeni del brezplačnega preskusnega obdobja v treh dneh (če je na voljo) bo zasežen, ko boste v brezplačnem preskusnem obdobju kupili premium naročnino.
Za več informacij glejte našo politiko zasebnosti in pogoje uporabe.","* Esta prueba se renueva automáticamente en una suscripción paga y continuará renovándose automáticamente hasta que cancele.
* Necesitas estar suscrito para usar esta aplicación. Sin contenido gratuito.
* Los pagos de suscripción se cargarán a su cuenta de iTunes en la confirmación de su compra.
* Las suscripciones se renovarán automáticamente y el pago se cargará a su cuenta de iTunes a menos que la renovación automática se desactive al menos 24 horas antes del final del período actual. El costo de la renovación depende de su Plan de suscripción. Nuestros planes de suscripción estándar son:
* Suscripción de 1 semana ($ 5.99)
Para otras monedas, el precio corresponde al mismo nivel de precios en la Matriz de precios de la App Store.
* La suscripción con un período de prueba gratuito se renovará automáticamente a una suscripción paga. Puede cancelar o administrar la renovación automática de su prueba gratuita en la configuración de su cuenta después de la compra. La cancelación entrará en vigor 24 horas después del último día del período de suscripción actual y será degradado al servicio gratuito.
* Tenga en cuenta: cualquier parte no utilizada de un período de prueba gratuito de 3 días (si se ofrece) se perderá cuando compre una suscripción premium durante el período de prueba gratuito.
Para obtener más información, consulte nuestra Política de privacidad y Condiciones de uso.","* Denna testversion förnyas automatiskt till en betald prenumeration och fortsätter att automatiskt förnyas tills du avbryter.
* Du måste prenumerera för att använda den här appen. Inget gratis innehåll.
* Prenumerationsbetalningar debiteras ditt iTunes-konto som bekräftelse på ditt köp.
* Prenumerationer förnyas automatiskt och betalning debiteras ditt iTunes-konto såvida inte automatisk förnyelse är avstängd minst 24 timmar före slutet av den aktuella perioden. Kostnaden för förnyelsen beror på din prenumerationsplan. Våra standardabonnemangsplaner är:
* 1 veckors prenumeration (5,99 USD)
För andra valutor motsvarar priset samma prisnivå i App Store Pricing Matrix.
* Prenumeration med en gratis provperiod förnyas automatiskt till en betald prenumeration. Du kan avbryta eller hantera din kostnadsfria provversion automatiskt i dina kontoinställningar efter köpet. Avbokningen träder i kraft 24 timmar efter den sista dagen i den aktuella prenumerationsperioden och du kommer att nedgraderas till gratistjänsten.
* Observera: varje oanvänd del av en gratis provperiod på 3 dagar (om den erbjuds) förverkas när du köper en premiumprenumeration under den kostnadsfria provperioden.
Snälla, för mer information se vår integritetspolicy och användarvillkor.","* การทดลองใช้นี้จะต่ออายุโดยอัตโนมัติเป็นการสมัครสมาชิกแบบชำระเงินและจะต่ออายุโดยอัตโนมัติต่อไปจนกว่าคุณจะยกเลิก
* คุณต้องสมัครสมาชิกเพื่อใช้แอพนี้ ไม่มีเนื้อหาฟรี
* การชำระเงินสำหรับการสมัครสมาชิกจะถูกหักออกจากบัญชี iTunes ของคุณที่ยืนยันการสั่งซื้อของคุณ
* การสมัครสมาชิกจะต่ออายุโดยอัตโนมัติและการชำระเงินจะถูกหักออกจากบัญชี iTunes ของคุณเว้นแต่การต่ออายุอัตโนมัติจะถูกปิดอย่างน้อย 24 ชั่วโมงก่อนสิ้นสุดช่วงเวลาปัจจุบัน ค่าใช้จ่ายในการต่ออายุขึ้นอยู่กับแผนการสมัครสมาชิกของคุณ แผนการสมัครสมาชิกมาตรฐานของเราคือ:
* สมัครสมาชิก 1 สัปดาห์ ($ 5.99)
สำหรับสกุลเงินอื่นราคาจะสอดคล้องกับระดับราคาเดียวกันบน App Store Pricing Matrix
* การสมัครสมาชิกที่มีช่วงทดลองใช้ฟรีจะต่ออายุโดยอัตโนมัติเป็นการสมัครสมาชิกแบบชำระเงิน คุณสามารถยกเลิกหรือจัดการการต่ออายุอัตโนมัติสำหรับการทดลองใช้ฟรีได้ในการตั้งค่าบัญชีของคุณหลังการซื้อ การยกเลิกจะมีผล 24 ชั่วโมงหลังจากวันสุดท้ายของระยะเวลาการสมัครสมาชิกปัจจุบันและคุณจะถูกลดระดับเป็นบริการฟรี
* โปรดทราบ: ส่วนที่ไม่ได้ใช้งานของช่วงทดลองใช้ฟรี 3 วัน (หากมีให้) จะถูกริบเมื่อคุณซื้อการสมัครสมาชิกแบบพรีเมียมในช่วงทดลองใช้ฟรี
โปรดดูข้อมูลเพิ่มเติมได้ที่นโยบายความเป็นส่วนตัวและเงื่อนไขการใช้งานของเรา","* Bu deneme, otomatik olarak ücretli bir abonelik olarak yenilenir ve siz iptal edene kadar otomatik olarak yenilenmeye devam eder.
* Bu uygulamayı kullanmak için abone olmanız gerekir. Ücretsiz içerik yok.
* Abonelik ödemeleri, satın alma işleminizin onaylanmasıyla iTunes hesabınızdan tahsil edilecektir.
* Abonelikler otomatik olarak yenilenecek ve cari dönemin bitiminden en az 24 saat önce otomatik yenileme kapatılmadığı sürece ödeme iTunes hesabınızdan tahsil edilecektir. Yenilemenin maliyeti, Abonelik Planınıza bağlıdır. Standart Abonelik Planlarımız şunlardır:
* 1 haftalık Abonelik (5,99 $)
Diğer para birimleri için fiyat, App Store Fiyatlandırma Matrisindeki aynı fiyat kademesine karşılık gelir.
* Ücretsiz deneme süresi olan abonelik, otomatik olarak ücretli bir aboneliğe yenilenir. Ücretsiz denemenizin otomatik yenilenmesini satın aldıktan sonra Hesap Ayarlarınızdan iptal edebilir veya yönetebilirsiniz. İptal, mevcut abonelik döneminin son gününden 24 saat sonra yürürlüğe girecek ve ücretsiz hizmete indirileceksiniz.
* Lütfen unutmayın: 3 günlük ücretsiz deneme süresinin (varsa) kullanılmayan kısımları, ücretsiz deneme süresi boyunca bir premium abonelik satın aldığınızda kaybedilecektir.
Daha fazla bilgi için lütfen Gizlilik Politikamıza ve Kullanım Koşullarımıza bakın.","* Bản dùng thử này tự động gia hạn thành đăng ký trả phí và sẽ tiếp tục tự động gia hạn cho đến khi bạn hủy.
* Bạn cần phải đăng ký để sử dụng ứng dụng này. Không có nội dung miễn phí.
* Các khoản thanh toán đăng ký sẽ được tính vào tài khoản iTunes của bạn khi xác nhận mua hàng của bạn.
* Đăng ký sẽ tự động gia hạn và khoản thanh toán sẽ được tính vào tài khoản iTunes của bạn trừ khi tự động gia hạn được tắt ít nhất 24 giờ trước khi kết thúc giai đoạn hiện tại. Chi phí gia hạn tùy thuộc vào Gói đăng ký của bạn. Các Gói Đăng ký tiêu chuẩn của chúng tôi là:
* Đăng ký 1 tuần ($ 5,99)
Đối với các đơn vị tiền tệ khác, giá tương ứng với cùng mức giá trên Ma trận định giá của App Store.
* Đăng ký có thời gian dùng thử miễn phí sẽ tự động gia hạn thành đăng ký trả phí. Bạn có thể hủy hoặc quản lý việc tự động gia hạn bản dùng thử miễn phí của mình trong Cài đặt tài khoản sau khi mua. Việc hủy bỏ sẽ có hiệu lực sau 24 giờ kể từ ngày cuối cùng của thời gian đăng ký hiện tại và bạn sẽ bị hạ cấp xuống dịch vụ miễn phí.
* Xin lưu ý: bất kỳ phần nào chưa sử dụng trong thời gian dùng thử miễn phí 3 ngày (nếu được cung cấp) sẽ bị mất khi bạn mua đăng ký trả phí trong thời gian dùng thử miễn phí.
Vui lòng, để biết thêm thông tin, hãy xem Chính sách Bảo mật và Điều khoản Sử dụng của chúng tôi.","* Aquesta prova es renova automàticament a una subscripció de pagament i es continuarà renovant automàticament fins que la cancel·lis.
* Cal estar subscrit per utilitzar aquesta aplicació. Sense contingut gratuït.
* Els pagaments de la subscripció es carregaran al vostre compte d'iTunes en confirmar la vostra compra.
* Les subscripcions es renovaran automàticament i el pagament es carregarà al vostre compte d'iTunes tret que la renovació automàtica estigui desactivada almenys 24 hores abans del final del període actual. El cost de la renovació depèn del vostre Pla de subscripció. Els nostres plans de subscripció estàndard són:
* Subscripció d'1 setmana (5,99 $)
Per a altres monedes, el preu correspon al mateix nivell de preus a la matriu de preus de l'App Store.
* La subscripció amb un període de prova gratuït es renovarà automàticament a una subscripció de pagament. Pots cancel·lar o gestionar la renovació automàtica de la prova gratuïta a la configuració del teu compte després de la compra. La cancel·lació tindrà efecte 24 hores després de l'últim dia del període de subscripció actual i se us baixarà al servei gratuït.
* Tingueu en compte: qualsevol part no utilitzada d'un període de prova gratuït de 3 dies (si s'ofereix) es perdrà quan compreu una subscripció premium durant el període de prova gratuït.
Si us plau, per obtenir més informació, consulteu la nostra Política de privadesa i Condicions d'ús.","* Ovo probno razdoblje automatski se obnavlja u plaćenu pretplatu i nastavit će se automatski obnavljati dok ne otkažete.
* Za korištenje ove aplikacije morate biti pretplaćeni. Nema besplatnog sadržaja.
* Plaćanje pretplate bit će naplaćeno s vašeg iTunes računa prilikom potvrde vaše kupnje.
* Pretplate će se automatski obnoviti i plaćanje će biti naplaćeno s vašeg iTunes računa osim ako se automatska obnova ne isključi najmanje 24 sata prije kraja tekućeg razdoblja. Cijena obnove ovisi o vašem planu pretplate. Naši standardni planovi pretplate su:
* 1-tjedna pretplata (5,99 USD)
Za druge valute, cijena odgovara istoj cjenovnoj razini u App Store Matrix cijena.
* Pretplata s besplatnim probnim razdobljem automatski će se obnoviti na plaćenu pretplatu. Možete otkazati ili upravljati automatskom obnovom besplatnog probnog razdoblja u postavkama računa nakon kupnje. Otkazivanje će stupiti na snagu 24 sata nakon posljednjeg dana tekućeg razdoblja pretplate i bit ćete vraćeni na besplatnu uslugu.
* Imajte na umu: svaki neiskorišteni dio besplatnog probnog razdoblja od 3 dana (ako je ponuđen) bit će izgubljen kada kupite premium pretplatu tijekom besplatnog probnog razdoblja.
Molimo, za više informacija pogledajte našu Politiku privatnosti i Uvjete korištenja.","* Toto zkušební období se automaticky obnovuje na placené předplatné a bude se automaticky obnovovat, dokud jej nezrušíte.
* Chcete-li používat tuto aplikaci, musíte být přihlášeni k odběru. Žádný bezplatný obsah.
* Platby za předplatné budou účtovány na váš účet iTunes při potvrzení nákupu.
* Předplatné se automaticky obnoví a platba bude účtována na váš účet iTunes, pokud není automatické obnovení vypnuto alespoň 24 hodin před koncem aktuálního období. Cena obnovení závisí na vašem plánu předplatného. Naše standardní plány předplatného jsou:
* Týdenní předplatné (5,99 $)
Pro ostatní měny cena odpovídá stejné cenové hladině v App Store Pricing Matrix.
* Předplatné s bezplatným zkušebním obdobím se automaticky obnoví na placené předplatné. Automatické obnovení bezplatné zkušební verze můžete po nákupu zrušit nebo spravovat v Nastavení účtu. Zrušení vstoupí v platnost 24 hodin po posledním dni aktuálního období předplatného a budete převedeni na bezplatnou službu.
* Poznámka: Jakákoli nevyužitá část bezplatného zkušebního období 3 dnů (pokud je nabízeno) propadne, když si během bezplatného zkušebního období zakoupíte prémiové předplatné.
Pro více informací si prosím přečtěte naše Zásady ochrany osobních údajů a Podmínky použití.","* Ця пробна версія автоматично поновлюється на платну підписку і продовжуватиме автоматично поновлюватися, доки ви не скасуєте підписку.
* Ви повинні бути підписані, щоб використовувати цю програму. Без безкоштовного контенту.
* Плата за підписку буде стягнута з вашого облікового запису iTunes під час підтвердження покупки.
* Підписки автоматично оновлюватимуться, а оплата стягуватиметься з вашого облікового запису iTunes, якщо автоматичне поновлення не буде вимкнено принаймні за 24 години до кінця поточного періоду. Вартість оновлення залежить від вашого плану підписки. Наші стандартні плани підписки:
* Підписка на 1 тиждень ($5,99)
Для інших валют ціна відповідає тому самому ціновому рівню в матриці цін App Store.
* Підписка з безкоштовним пробним періодом автоматично поновлюється на платну підписку. Ви можете скасувати або керувати автоматичним поновленням безкоштовної пробної версії в налаштуваннях облікового запису після покупки. Скасування набуде чинності через 24 години після останнього дня поточного періоду підписки, і ви будете переведені на безкоштовний сервіс.
* Зверніть увагу: будь-яка невикористана частина безкоштовного пробного періоду тривалістю 3 дні (якщо він пропонується) буде анульована, якщо ви придбаєте преміальну підписку протягом безкоштовного пробного періоду.
Будь ласка, для отримання додаткової інформації перегляньте нашу Політику конфіденційності та Умови використання».","* Uji coba ini secara otomatis memperbarui menjadi langganan berbayar dan akan terus memperbarui secara otomatis hingga Anda membatalkan.
* Anda harus berlangganan untuk menggunakan aplikasi ini. Tidak ada konten gratis.
* Pembayaran berlangganan akan dibebankan ke akun iTunes Anda atas konfirmasi pembelian Anda.
* Langganan akan secara otomatis memperbarui dan pembayaran akan dibebankan ke akun iTunes Anda kecuali Auto-Renew dimatikan setidaknya 24 jam sebelum akhir periode saat ini. Biaya pembaruan tergantung pada rencana langganan Anda. Paket berlangganan standar kami adalah:
* Langganan 1 minggu ($ 5,99)
Untuk mata uang lainnya, harga sesuai dengan tingkat harga yang sama pada matriks harga App Store.
* Berlangganan dengan periode uji coba gratis akan secara otomatis memperbarui ke langganan berbayar. Anda dapat membatalkan atau mengelola pembaruan otomatis uji coba gratis Anda di pengaturan akun Anda setelah pembelian. Pembatalan akan berlaku 24 jam setelah hari terakhir periode berlangganan saat ini dan Anda akan diturunkan ke layanan gratis.
* Harap dicatat: Setiap bagian yang tidak digunakan dari periode uji coba gratis 3 hari (jika ditawarkan) akan hangus ketika Anda membeli langganan premium selama periode percobaan gratis.
Tolong, untuk informasi lebih lanjut, lihat Kebijakan Privasi dan Ketentuan Penggunaan kami.","* Percubaan ini secara automatik memperbaharui langganan berbayar dan akan terus memperbaharui secara automatik sehingga anda membatalkannya.
* Anda perlu dilanggan untuk menggunakan aplikasi ini. Tiada kandungan percuma.
* Pembayaran langganan akan dikenakan ke akaun iTunes anda pada pengesahan pembelian anda.
* Langganan akan diperbaharui secara automatik dan pembayaran akan dikenakan ke akaun iTunes anda melainkan jika diperbaharui secara automatik dimatikan sekurang-kurangnya 24 jam sebelum akhir tempoh semasa. Kos pembaharuan bergantung kepada pelan langganan anda. Pelan langganan standard kami adalah:
* Langganan 1 minggu ($ 5.99)
Untuk mata wang lain, harga sepadan dengan peringkat harga yang sama pada matriks harga App Store.
* Langganan dengan tempoh percubaan percuma secara automatik akan diperbaharui kepada langganan berbayar. Anda boleh membatalkan atau menguruskan pembaharuan auto percubaan percuma anda dalam tetapan akaun anda selepas pembelian. Pembatalan akan berkuat kuasa 24 jam selepas hari terakhir tempoh langganan semasa dan anda akan diturunkan ke perkhidmatan percuma.
* Sila ambil perhatian: Sebarang bahagian percubaan percuma yang tidak digunakan selama 3 hari (jika ditawarkan) akan dilucuthakkan apabila anda membeli langganan premium semasa tempoh percubaan percuma.
Sila, untuk maklumat lanjut lihat Dasar Privasi dan Syarat Penggunaan kami.","* Ez a próba automatikusan megújul egy fizetett előfizetéssé, és addig folytatja az automatikusan megújulást, amíg nem törli.
* Feliratkozni kell az alkalmazás használatához. Nincs ingyenes tartalom.
* Az előfizetési kifizetéseket az iTunes -számlájára számítják fel a vásárlás megerősítésével.
* Az előfizetések automatikusan megújulnak, és a fizetést az iTunes-számlájára számítják fel, kivéve, ha az automatikus megújítás legalább 24 órával a jelenlegi időszak vége előtt kikapcsol. A megújítás költsége az előfizetési tervetől függ. A szokásos előfizetési terveink a következők:
* 1 hetes előfizetés (5,99 USD)
Más valuták esetében az ár ugyanazon árcsoportnak felel meg az App Store árazási mátrixon.
* Az ingyenes próbaidőszakos előfizetés automatikusan megújul a fizetett előfizetésre. A vásárlás után lemondhatja vagy kezelheti az ingyenes próbaverzió automatikus megújítását a fiók beállításaiban. A lemondás a jelenlegi előfizetési időszak utolsó napja után 24 órát fog hatályba lépni, és az ingyenes szolgáltatásra csökkent.
* Felhívjuk figyelmét, hogy a 3 napos ingyenes próbaidőszak (ha felajánlva) minden fel nem használt részét elveszítik, amikor prémium előfizetést vásárol az ingyenes próbaidőszak alatt.
További információkért lásd az adatvédelmi politikánkat és a használati feltételeket.","* यह परीक्षण स्वचालित रूप से एक भुगतान सदस्यता में नवीनीकृत हो जाता है और जब तक आप रद्द नहीं करते तब तक यह स्वचालित रूप से नवीनीकृत होता रहेगा।
* इस ऐप का उपयोग करने के लिए आपको सब्सक्राइब करने की आवश्यकता है। कोई मुफ्त सामग्री नहीं।
* आपकी खरीद की पुष्टि पर आपके iTunes खाते में सदस्यता भुगतान शुल्क लिया जाएगा।
* सदस्यता स्वचालित रूप से नवीनीकृत हो जाएगी और भुगतान आपके iTunes खाते में किया जाएगा जब तक कि वर्तमान अवधि के अंत से कम से कम 24 घंटे पहले ऑटो-रेन्यू बंद नहीं किया जाता है। नवीकरण की लागत आपकी सदस्यता योजना पर निर्भर करती है। हमारी मानक सदस्यता योजनाएं हैं:
* 1-सप्ताह की सदस्यता ($ 5.99)
अन्य मुद्राओं के लिए, कीमत ऐप स्टोर मूल्य निर्धारण मैट्रिक्स पर समान मूल्य स्तर से मेल खाती है।
* एक नि: शुल्क परीक्षण अवधि के साथ सदस्यता स्वचालित रूप से एक भुगतान सदस्यता के लिए नवीनीकृत हो जाएगी। आप खरीद के बाद अपने खाता सेटिंग में अपने नि: शुल्क परीक्षण के ऑटो-नवीनीकरण को रद्द या प्रबंधित कर सकते हैं। रद्दीकरण वर्तमान सदस्यता अवधि के अंतिम दिन के बाद 24-घंटे प्रभावी होगा और आपको मुफ्त सेवा में डाउनग्रेड किया जाएगा।
* कृपया ध्यान दें: 3 दिनों की नि: शुल्क परीक्षण अवधि के किसी भी अप्रयुक्त हिस्से (यदि पेशकश की जाती है) तो नि: शुल्क परीक्षण अवधि के दौरान प्रीमियम सदस्यता खरीदने पर जब्त कर ली जाएगी।
कृपया, अधिक जानकारी के लिए हमारी गोपनीयता नीति और उपयोग की शर्तें देखें।"
AndroidMainTxtID,,"This app doesn’t include free content. You need subscribe to use it. Subscription : After 3-days free period, your payment will be automatically charged $ 29.99 per week. Furniture Mods offers you one premium subscription with automatic renewal and cancellation at any time.Take advantage of the 3-day trial period and cancel your subscription during this 3-day trial period, you will not be charged and you can do so at any time. You will only be charged when your Premium subscription expires, which will automatically renew for 1 week. Payment will be charged upon confirmation of purchase from your Google account. The trial period will automatically renew to a paid subscription unless it is turned off at least 24 hours before the end of the current period. You can turn off auto-renewal and manage your subscriptions by going to your Google Play Store account settings after purchase. Follow the link to see how to manage or cancel your subscriptions: https:/support.google.com/googleplay/answer/7018481?co=GENIE.P atform%3DAndroid&amp/,hl=en Any unused portion of the 3-day free trial (if offered) will be forfeited when purchasing a premium subscription during the free trial. Personal data is processed in accordance with the terms of the privacy policy.",بعد انتهاء صلاحية العرض ، سيتم دفع الاشتراك تلقائيًا وسيتم تحصيل 29.99 دولارًا منك مرة واحدة في الأسبوع حتى تقوم بالإلغاء. يمكنك إلغاء الاشتراك في أي وقت. الاطلاع على سياسة وشروط الاستخدام الخصوصية.,優惠到期後，訂閱將自動成為付費用戶，並且每週一次向您收取29.99美元的費用，直到您取消訂閱為止。 您可以隨時取消訂閱。 請參閱我們的隱私政策和使用條款。,"Efter tilbuddets udløb bliver abonnementet automatisk betalt, og du vil blive opkrævet $ 29,99 en gang om ugen, indtil du annullerer. Du kan til enhver tid afmelde dig. Se vores fortrolighedspolitik og vilkår for brug.","Nadat de aanbieding is verlopen, wordt het abonnement automatisch betaald en wordt er eenmaal per week $ 29,99 in rekening gebracht totdat je opzegt. U kunt zich op elk moment uitschrijven. Zie ons privacybeleid en onze gebruiksvoorwaarden.","Pärast pakkumise aegumist muutub tellimus automaatselt tasuliseks ja te tühistate teilt kord nädalas 29,99 dollarit. Tellimuse saate igal ajal tühistada. Vaadake meie privaatsuspoliitikat ja kasutustingimusi.","Tarjouksen päättymisen jälkeen tilaus maksetaan automaattisesti ja sinulta veloitetaan 29,99 dollaria kerran viikossa, kunnes peruutat tilauksen. Voit peruuttaa tilauksen milloin tahansa. Katso tietosuojakäytäntömme ja käyttöehdot.","Une fois l'offre expirée, l'abonnement sera automatiquement payé et vous serez facturé 29,99 $ une fois par semaine jusqu'à ce que vous l'annuliez. Vous pouvez vous désinscrire à tout moment. Consultez notre politique de confidentialité et nos conditions d'utilisation.","Nach Ablauf des Angebots wird das Abonnement automatisch bezahlt und Ihnen werden einmal pro Woche 29,99 USD berechnet, bis Sie kündigen. Sie können sich jederzeit abmelden. Beachten Sie unsere Datenschutzbestimmungen und Nutzungsbedingungen.","Μετά τη λήξη της προσφοράς, η συνδρομή θα πληρωθεί αυτόματα και θα χρεωθείτε 29,99 $ μία φορά την εβδομάδα έως ότου ακυρώσετε. Μπορείτε να διαγραφείτε ανά πάσα στιγμή. Δείτε την πολιτική απορρήτου μας και τους όρους χρήσης.",לאחר פקיעת ההצעה המנוי ישולם אוטומטית ותחויב בסכום של 29.99 $ פעם בשבוע עד שתבטל. תוכל לבטל את הרישום בכל עת. עיין במדיניות הפרטיות שלנו ותנאי השימוש.,"Dopo la scadenza dell'offerta, l'abbonamento verrà automaticamente pagato e ti verranno addebitati $ 29,99 una volta alla settimana fino all'annullamento. È possibile disdire in qualsiasi momento. Consulta la nostra politica sulla privacy e termini di utilizzo.",オファーの有効期限が切れると、サブスクリプションは自動的に支払われ、キャンセルするまで週に1回$ 29.99が請求されます。 いつでも退会できます。 プライバシーポリシーと利用規約をご覧ください。,쿠폰이 만료되면 구독이 자동으로 결제되며 취소 할 때까지 일주일에 한 번 $ 29.99가 청구됩니다. 언제든지 구독을 취소 할 수 있습니다. 개인 정보 보호 정책 및 사용 약관을 참조하십시오.,"Pēc piedāvājuma termiņa beigām abonements automātiski tiks apmaksāts, un no jums reizi nedēļā tiks iekasēta maksa 29,99 USD, līdz atcelsit. Jebkurā laikā varat anulēt abonementu. Skatiet mūsu konfidencialitātes politiku un lietošanas noteikumus.","Pasibaigus pasiūlymo galiojimo laikui, prenumerata bus automatiškai apmokėta ir būsite apmokestinti 29,99 USD kartą per savaitę, kol atšauksite. Bet kada galite atsisakyti prenumeratos. Peržiūrėkite mūsų privatumo politiką ir naudojimo sąlygas.","Etter at tilbudet utløper blir abonnementet automatisk betalt, og du blir belastet $ 29,99 en gang i uken til du sier opp. Du kan når som helst avslutte abonnementet. Se vår personvernpolicy og vilkår for bruk.","Po wygaśnięciu oferty subskrypcja zostanie automatycznie opłacona, a opłata w wysokości 29,99 USD będzie pobierana raz w tygodniu do momentu anulowania. W każdej chwili możesz zrezygnować z subskrypcji. Zapoznaj się z naszą polityką prywatności i warunkami użytkowania.","Depois que a oferta expirar, a assinatura será automaticamente paga e você será cobrado $ 29,99 uma vez por semana até o cancelamento. Você pode cancelar sua inscrição a qualquer momento. Consulte nossa política de privacidade e termos de uso.","După expirarea ofertei, abonamentul va fi plătit automat și veți fi taxat cu 29,99 USD o dată pe săptămână până când anulați. Vă puteți dezabona în orice moment. Consultați politica noastră de confidențialitate și condițiile de utilizare.","По истечении срока действия предложения подписка будет автоматически оплачена, и с вас будет взиматься плата в размере 29,99 долларов США один раз в неделю, пока вы не отмените подписку. Вы можете отписаться в любое время. Ознакомьтесь с нашей политикой конфиденциальности и правилами пользования.","Po uplynutí platnosti ponuky sa predplatné automaticky zaplatí a až do zrušenia vám bude účtovaná suma 29,99 USD. Odber môžete kedykoľvek zrušiť. Prečítajte si naše pravidlá ochrany osobných údajov a podmienky používania.","Po izteku ponudbe bo naročnina samodejno plačana in enkrat na teden vam bomo zaračunali 29,99 USD, dokler ne prekličete. Odjavo lahko kadar koli odjavite. Oglejte si našo politiko zasebnosti in pogoje uporabe.","Una vez que expire la oferta, la suscripción se pagará automáticamente y se le cobrará $ 29.99 una vez a la semana hasta que cancele. Puede darse de baja en cualquier momento. Consulte nuestra política de privacidad y condiciones de uso.","Efter att erbjudandet löper ut kommer prenumerationen automatiskt att betalas och du kommer att debiteras 29,99 USD en gång i veckan tills du avbryter. Du kan när som helst avsluta prenumerationen. Se vår integritetspolicy och användarvillkor.",หลังจากข้อเสนอหมดอายุการสมัครสมาชิกจะกลายเป็นการชำระเงินโดยอัตโนมัติและคุณจะถูกเรียกเก็บเงิน $ 29.99 ต่อสัปดาห์จนกว่าคุณจะยกเลิก คุณสามารถยกเลิกการสมัครได้ตลอดเวลา ดูนโยบายความเป็นส่วนตัวและเงื่อนไขการใช้งานของเรา,"Teklifin süresi dolduktan sonra abonelik otomatik olarak ödenir ve siz iptal edene kadar haftada bir 29,99 ABD doları ücretlendirilirsiniz. İstediğiniz zaman abonelikten çıkabilirsiniz. Gizlilik politikamıza ve kullanım şartlarımıza bakın.","Sau khi ưu đãi hết hạn, đăng ký sẽ tự động được thanh toán và bạn sẽ bị tính phí $ 29,99 mỗi tuần một lần cho đến khi bạn hủy. Bạn có thể bỏ theo dõi bất cứ lúc nào. Xem chính sách bảo mật và điều khoản sử dụng của chúng tôi.","Un cop caduca l'oferta, la subscripció es pagarà automàticament i se us cobrarà 29,99 $ un cop per setmana fins que cancel·leu la subscripció. Pots donar-te de baixa en qualsevol moment. Consulteu la nostra política de privadesa i condicions d'ús.","Nakon što ponuda istekne, pretplata će se automatski plaćati i naplaćivat će vam se 29,99 USD jednom tjedno dok ne otkažete pretplatu. Možete se odjaviti u bilo kojem trenutku. Provjerite našu politiku privatnosti i uvjete korištenja.","Jakmile nabídka vyprší, předplatné bude automaticky zaplaceno a jednou týdně vám bude účtováno 29,99 USD, dokud předplatné nezrušíte. Z odběru se můžete kdykoli odhlásit. Podívejte se na naše zásady ochrany osobních údajů a podmínky použití.","Після закінчення терміну дії пропозиції підписка буде автоматично оплачена, і з вас буде стягнуто плату в розмірі 29,99 доларів США один раз за тиждень, поки ви не відміните підписку. Ви можете писати в будь-який час. Ознакомьтесь з нашою політикою конфіденційності та правилами користування.","Setelah akhir penawaran, langganan akan dibayar secara otomatis dan Anda akan dikenakan biaya $ 29,99 sekali seminggu sampai Anda membatalkan. Anda dapat berhenti berlangganan kapan saja. Lihat Kebijakan Privasi dan Ketentuan Penggunaan kami.","Selepas akhir tawaran, langganan akan dibayar secara automatik dan anda akan dikenakan bayaran $ 29,99 sekali seminggu sehingga anda membatalkannya. Anda boleh berhenti berlangganan pada bila -bila masa. Lihat Dasar Privasi dan Syarat Penggunaan kami.","Az ajánlat vége után az előfizetést automatikusan megfizetik, és hetente egyszer 29,99 dollárt számít fel, amíg nem törli. Bármikor leiratkozhat. Lásd adatvédelmi politikánkat és használati feltételeinket.","ऑफ़र के अंत के बाद, सदस्यता को स्वचालित रूप से भुगतान किया जाएगा और आपको सप्ताह में एक बार $ 29.99 का शुल्क लिया जाएगा जब तक आप रद्द कर देते हैं। आप किसी भी समय सदस्यता समाप्त कर सकते हैं। उपयोग के लिए हमारी गोपनीयता नीति और शर्तें देखें।"
iOSStart3daysButtonID,,Start for FREE,ابدأ مجانًا,免費開始,Start GRATIS,Begin GRATIS,Alustage TASUTA,Aloita ILMAISEKSI,Commencez GRATUITEMENT,KOSTENLOS starten,Ξεκινήστε ΔΩΡΕΑΝ,התחל בחינם,Inizia GRATIS,無料で始めましょう,무료로 시작,Sāciet BEZ MAKSAS,Pradėkite NEMOKAMAI,Kom i gang GRATIS,Rozpocznij ZA DARMO,Comece GRATUITAMENTE,Începeți GRATUIT,Начать БЕСПЛАТНО,Začnite ZADARMO,Začnite BREZPLAČNO,Empiece GRATIS,Börja GRATIS,เริ่มฟรี,ÜCRETSİZ Başlayın,Bắt đầu MIỄN PHÍ,Comença GRATIS,Počnite BESPLATNO,Start ZDARMA,Розпочати БЕЗКОШТОВНО,Mulai GRATIS,Mulakan secara percuma,Kezdje INGYEN,मुफ़्त में शुरू करें
iOSStart3daysTitleID,,"Start 3-days for FREE
Then $5.99/week",,,,,,,,,,,,,,,,,,,,,,,,,,,,,,,,,,,